tb_cpu.vcd
$date
	Sat May 24 09:49:38 2025
$end
$version
	Icarus Verilog
$end
$timescale
	1ps
$end
$scope module tb_cpu $end
$var wire 16 ! r0 [15:0] $end
$var wire 16 " r1 [15:0] $end
$var wire 16 # r10 [15:0] $end
$var wire 16 $ r11 [15:0] $end
$var wire 16 % r12 [15:0] $end
$var wire 16 & r13 [15:0] $end
$var wire 16 ' r14 [15:0] $end
$var wire 16 ( r15 [15:0] $end
$var wire 16 ) r2 [15:0] $end
$var wire 16 * r3 [15:0] $end
$var wire 16 + r4 [15:0] $end
$var wire 16 , r5 [15:0] $end
$var wire 16 - r6 [15:0] $end
$var wire 16 . r7 [15:0] $end
$var wire 16 / r8 [15:0] $end
$var wire 16 0 r9 [15:0] $end
$var parameter 32 1 DATA_WIDTH $end
$var parameter 32 2 WIDTH $end
$var reg 1 3 clk $end
$var reg 1 4 reset $end
$scope module DUT $end
$var wire 1 3 clk $end
$var wire 1 5 id_ex_flush $end
$var wire 4 6 id_jr_reg [3:0] $end
$var wire 1 7 if_id_flush $end
$var wire 1 8 is_str_reg_indirect $end
$var wire 16 9 jr_target [15:0] $end
$var wire 16 : mem_read_data [15:0] $end
$var wire 16 ; mem_write_data [15:0] $end
$var wire 1 < real_id_ex_flush $end
$var wire 1 = real_if_id_stall $end
$var wire 1 > real_if_id_write $end
$var wire 1 ? real_pc_write $end
$var wire 1 4 reset $end
$var wire 1 @ zero_flag $end
$var wire 16 A wb_write_data [15:0] $end
$var wire 1 B wb_reg_write $end
$var wire 16 C wb_read_data [15:0] $end
$var wire 4 D wb_rd [3:0] $end
$var wire 1 E wb_mem_to_reg $end
$var wire 16 F wb_jal_link_value [15:0] $end
$var wire 1 G wb_is_jal $end
$var wire 16 H wb_alu_result [15:0] $end
$var wire 16 I str_addr [15:0] $end
$var wire 1 J stall $end
$var wire 1 K reg_write $end
$var wire 4 L read_reg1 [3:0] $end
$var wire 1 M pc_write $end
$var wire 16 N pc_next [15:0] $end
$var wire 16 O pc_current [15:0] $end
$var wire 1 P mem_write $end
$var wire 1 Q mem_reg_write $end
$var wire 1 R mem_read $end
$var wire 4 S mem_rd [3:0] $end
$var wire 16 T mem_pc [15:0] $end
$var wire 1 U mem_mem_write $end
$var wire 1 V mem_mem_read $end
$var wire 16 W mem_jal_link_value [15:0] $end
$var wire 1 X mem_is_jal $end
$var wire 1 Y mem_branch $end
$var wire 16 Z mem_alu_result [15:0] $end
$var wire 1 [ ldpc $end
$var wire 1 \ is_jr $end
$var wire 1 ] is_jal $end
$var wire 16 ^ instr [15:0] $end
$var wire 1 _ if_id_write $end
$var wire 16 ` if_id_pc [15:0] $end
$var wire 16 a if_id_instr [15:0] $end
$var wire 4 b id_rt [3:0] $end
$var wire 4 c id_rs [3:0] $end
$var wire 16 d id_reg_data2 [15:0] $end
$var wire 16 e id_reg_data1 [15:0] $end
$var wire 4 f id_rd [3:0] $end
$var wire 4 g id_opcode [3:0] $end
$var wire 16 h id_jump_target [15:0] $end
$var wire 16 i id_jr_target [15:0] $end
$var wire 16 j id_jal_link_value [15:0] $end
$var wire 1 k id_is_jal $end
$var wire 16 l id_imm_ext [15:0] $end
$var wire 6 m id_imm6 [5:0] $end
$var wire 4 n id_ex_rt [3:0] $end
$var wire 4 o id_ex_rs [3:0] $end
$var wire 1 p id_ex_reg_write $end
$var wire 16 q id_ex_reg_data2 [15:0] $end
$var wire 16 r id_ex_reg_data1 [15:0] $end
$var wire 4 s id_ex_rd [3:0] $end
$var wire 16 t id_ex_pc [15:0] $end
$var wire 1 u id_ex_mem_write $end
$var wire 1 v id_ex_mem_read $end
$var wire 16 w id_ex_imm_ext [15:0] $end
$var wire 1 x id_ex_branch $end
$var wire 1 y id_ex_alu_src $end
$var wire 3 z id_ex_alu_op [2:0] $end
$var wire 1 { halt $end
$var wire 2 | forwardB [1:0] $end
$var wire 2 } forwardA [1:0] $end
$var wire 16 ~ ex_jal_link_value [15:0] $end
$var wire 1 !" ex_is_str_reg_indirect $end
$var wire 1 "" ex_is_jal $end
$var wire 16 #" ex_forw_B [15:0] $end
$var wire 16 $" ex_forw_A [15:0] $end
$var wire 16 %" ex_alu_result [15:0] $end
$var wire 1 &" branch $end
$var wire 1 '" alu_src $end
$var wire 3 (" alu_op [2:0] $end
$var wire 16 )" alu_in2_reg [15:0] $end
$var wire 16 *" alu_in2 [15:0] $end
$var wire 16 +" alu_in1 [15:0] $end
$var parameter 32 ," DATA_WIDTH $end
$var parameter 32 -" DMEM_DEPTH $end
$var parameter 32 ." IMEM_DEPTH $end
$var parameter 32 /" REGADDR_W $end
$var parameter 32 0" WIDTH $end
$scope module ALU_I $end
$var wire 16 1" a [15:0] $end
$var wire 16 2" b [15:0] $end
$var wire 1 @ zero $end
$var wire 3 3" alu_op [2:0] $end
$var parameter 32 4" DATA_WIDTH $end
$var reg 16 5" result [15:0] $end
$upscope $end
$scope module CONTROL $end
$var wire 4 6" opcode [3:0] $end
$var wire 1 @ zero $end
$var reg 3 7" alu_op [2:0] $end
$var reg 1 '" alu_src $end
$var reg 1 &" branch $end
$var reg 1 { halt $end
$var reg 1 [ ldpc $end
$var reg 1 R mem_read $end
$var reg 1 P mem_write $end
$var reg 1 K reg_write $end
$upscope $end
$scope module DMEM $end
$var wire 8 8" addr [7:0] $end
$var wire 1 3 clk $end
$var wire 16 9" read_data [15:0] $end
$var wire 16 :" write_data [15:0] $end
$var wire 1 U mem_write $end
$var wire 1 V mem_read $end
$var parameter 32 ;" ADDR_WIDTH $end
$var parameter 32 <" DATA_WIDTH $end
$var parameter 136 =" MEMFILE $end
$upscope $end
$scope module EX_MEM $end
$var wire 1 3 clk $end
$var wire 16 >" ex_alu_result [15:0] $end
$var wire 16 ?" ex_reg_data2 [15:0] $end
$var wire 1 4 reset $end
$var wire 1 p ex_reg_write $end
$var wire 4 @" ex_rd [3:0] $end
$var wire 16 A" ex_pc [15:0] $end
$var wire 1 u ex_mem_write $end
$var wire 1 v ex_mem_read $end
$var wire 16 B" ex_jal_link_value [15:0] $end
$var wire 1 "" ex_is_jal $end
$var wire 1 x ex_branch $end
$var parameter 32 C" DATA_WIDTH $end
$var parameter 32 D" PC_WIDTH $end
$var parameter 32 E" REGADDR_WIDTH $end
$var reg 16 F" mem_alu_result [15:0] $end
$var reg 1 Y mem_branch $end
$var reg 1 X mem_is_jal $end
$var reg 16 G" mem_jal_link_value [15:0] $end
$var reg 1 V mem_mem_read $end
$var reg 1 U mem_mem_write $end
$var reg 16 H" mem_pc [15:0] $end
$var reg 4 I" mem_rd [3:0] $end
$var reg 1 Q mem_reg_write $end
$var reg 16 J" mem_write_data [15:0] $end
$upscope $end
$scope module FORWARD_UNIT $end
$var wire 4 K" ex_mem_rd [3:0] $end
$var wire 1 Q ex_mem_reg_write $end
$var wire 1 B wb_reg_write $end
$var wire 4 L" wb_rd [3:0] $end
$var wire 4 M" id_ex_rt [3:0] $end
$var wire 4 N" id_ex_rs [3:0] $end
$var parameter 32 O" REGADDR_WIDTH $end
$var reg 2 P" forwardA [1:0] $end
$var reg 2 Q" forwardB [1:0] $end
$upscope $end
$scope module HAZARD_UNIT $end
$var wire 1 \ id_is_jr $end
$var wire 4 R" if_id_rs [3:0] $end
$var wire 4 S" if_id_rt [3:0] $end
$var wire 4 T" id_ex_rd [3:0] $end
$var wire 1 v id_ex_mem_read $end
$var wire 4 U" ex_rd [3:0] $end
$var wire 1 "" ex_is_jal $end
$var reg 1 _ if_id_write $end
$var reg 1 M pc_write $end
$var reg 1 J stall $end
$upscope $end
$scope module ID_EX $end
$var wire 1 3 clk $end
$var wire 1 < flush $end
$var wire 3 V" id_alu_op [2:0] $end
$var wire 1 '" id_alu_src $end
$var wire 1 &" id_branch $end
$var wire 1 k id_is_jal $end
$var wire 1 8 id_is_str_reg_indirect $end
$var wire 16 W" id_jal_link_value [15:0] $end
$var wire 1 R id_mem_read $end
$var wire 1 P id_mem_write $end
$var wire 4 X" id_rd [3:0] $end
$var wire 1 K id_reg_write $end
$var wire 4 Y" id_rs [3:0] $end
$var wire 4 Z" id_rt [3:0] $end
$var wire 1 4 reset $end
$var wire 16 [" id_read_data2 [15:0] $end
$var wire 16 \" id_read_data1 [15:0] $end
$var wire 16 ]" id_pc [15:0] $end
$var wire 16 ^" id_imm [15:0] $end
$var parameter 32 _" DATA_WIDTH $end
$var parameter 32 `" PC_WIDTH $end
$var parameter 32 a" REGADDR_WIDTH $end
$var reg 3 b" ex_alu_op [2:0] $end
$var reg 1 y ex_alu_src $end
$var reg 1 x ex_branch $end
$var reg 16 c" ex_imm_ext [15:0] $end
$var reg 1 "" ex_is_jal $end
$var reg 1 !" ex_is_str_reg_indirect $end
$var reg 16 d" ex_jal_link_value [15:0] $end
$var reg 1 v ex_mem_read $end
$var reg 1 u ex_mem_write $end
$var reg 16 e" ex_pc [15:0] $end
$var reg 4 f" ex_rd [3:0] $end
$var reg 16 g" ex_reg_data1 [15:0] $end
$var reg 16 h" ex_reg_data2 [15:0] $end
$var reg 1 p ex_reg_write $end
$var reg 4 i" ex_rs [3:0] $end
$var reg 4 j" ex_rt [3:0] $end
$upscope $end
$scope module ID_REGFILE $end
$var wire 1 3 clk $end
$var wire 4 k" read_reg1 [3:0] $end
$var wire 4 l" read_reg2 [3:0] $end
$var wire 1 4 reset $end
$var wire 16 m" write_data [15:0] $end
$var wire 4 n" write_reg [3:0] $end
$var wire 1 B reg_write $end
$var wire 16 o" read_data2 [15:0] $end
$var wire 16 p" read_data1 [15:0] $end
$var parameter 32 q" DATA_WIDTH $end
$var parameter 36 r" NUM_REGS $end
$var parameter 32 s" REGADDR_WIDTH $end
$scope begin $unm_blk_45 $end
$var integer 32 t" i [31:0] $end
$upscope $end
$upscope $end
$scope module IF_ID $end
$var wire 1 3 clk $end
$var wire 1 7 flush $end
$var wire 1 4 reset $end
$var wire 1 = stall $end
$var wire 16 u" if_pc [15:0] $end
$var wire 16 v" if_instr [15:0] $end
$var parameter 32 w" INSTR_WIDTH $end
$var parameter 32 x" PC_WIDTH $end
$var reg 16 y" id_instr [15:0] $end
$var reg 16 z" id_pc [15:0] $end
$upscope $end
$scope module IMEM $end
$var wire 8 {" addr [7:0] $end
$var wire 16 |" instr [15:0] $end
$var parameter 32 }" ADDR_WIDTH $end
$var parameter 32 ~" DATA_WIDTH $end
$var parameter 144 !# MEMFILE $end
$scope begin $unm_blk_4 $end
$var integer 32 "# i [31:0] $end
$upscope $end
$upscope $end
$scope module IMM_GEN $end
$var wire 6 ## imm_in [5:0] $end
$var wire 16 $# imm_out [15:0] $end
$var parameter 32 %# IN_WIDTH $end
$var parameter 32 &# OUT_WIDTH $end
$upscope $end
$scope module MEM_WB $end
$var wire 1 3 clk $end
$var wire 16 '# mem_alu_result [15:0] $end
$var wire 1 X mem_is_jal $end
$var wire 16 (# mem_jal_link_value [15:0] $end
$var wire 1 V mem_mem_read $end
$var wire 4 )# mem_rd [3:0] $end
$var wire 16 *# mem_read_data [15:0] $end
$var wire 1 Q mem_reg_write $end
$var wire 1 4 reset $end
$var parameter 32 +# DATA_WIDTH $end
$var parameter 32 ,# REGADDR_WIDTH $end
$var reg 16 -# wb_alu_result [15:0] $end
$var reg 1 G wb_is_jal $end
$var reg 16 .# wb_jal_link_value [15:0] $end
$var reg 1 E wb_mem_to_reg $end
$var reg 4 /# wb_rd [3:0] $end
$var reg 16 0# wb_read_data [15:0] $end
$var reg 1 B wb_reg_write $end
$upscope $end
$scope module PC $end
$var wire 1 3 clk $end
$var wire 16 1# pc_in [15:0] $end
$var wire 1 ? pc_write $end
$var wire 1 4 reset $end
$var parameter 32 2# WIDTH $end
$var reg 16 3# pc_out [15:0] $end
$upscope $end
$upscope $end
$upscope $end
$enddefinitions $end
$comment Show the parameter values. $end
$dumpall
b10000 2#
b100 ,#
b10000 +#
b10000 &#
b110 %#
b10010010100010001001101001011110110100101101110011100110111010001110010010111110110100101101110011010010111010000101110011010000110010101111000 !#
b10000 ~"
b1000 }"
b10000 x"
b10000 w"
b100 s"
b10000 r"
b10000 q"
b100 a"
b10000 `"
b10000 _"
b100 O"
b100 E"
b10000 D"
b10000 C"
b100100101000100010011010010111101100100011000010111010001100001010111110110100101101110011010010111010000101110011010000110010101111000 ="
b10000 <"
b1000 ;"
b10000 4"
b10000 0"
b100 /"
b100000000 ."
b100000000 -"
b10000 ,"
b10000 2
b10000 1
$end
#0
$dumpvars
b0 3#
b1 1#
b0 0#
b0 /#
b0 .#
b0 -#
bz *#
b0 )#
b0 (#
b0 '#
b0 $#
b0 ##
b100000000 "#
b10000000000000 |"
b0 {"
b0 z"
b0 y"
b10000000000000 v"
b0 u"
b10000 t"
b0 p"
b0 o"
b0 n"
b0 m"
b0 l"
b0 k"
b0 j"
b0 i"
b0 h"
b0 g"
b0 f"
b0 e"
b0 d"
b0 c"
b0 b"
b0 ^"
b0 ]"
b0 \"
b0 ["
b0 Z"
b0 Y"
b0 X"
b1 W"
b0 V"
b0 U"
b0 T"
b0 S"
b0 R"
b0 Q"
b0 P"
b0 N"
b0 M"
b0 L"
b0 K"
b0 J"
b0 I"
b0 H"
b0 G"
b0 F"
b0 B"
b0 A"
b0 @"
b0 ?"
b0 >"
b0 :"
bz 9"
b0 8"
b0 7"
b0 6"
b0 5"
b0 3"
b0 2"
b0 1"
b0 +"
b0 *"
b0 )"
b0 ("
0'"
0&"
b0 %"
b0 $"
b0 #"
0""
x!"
b0 ~
b0 }
b0 |
0{
b0 z
0y
0x
b0 w
0v
0u
b0 t
b0 s
b0 r
b0 q
0p
b0 o
b0 n
b0 m
b0 l
0k
b1 j
b0 i
b0 h
b0 g
b0 f
b0 e
b0 d
b0 c
b0 b
b0 a
b0 `
1_
b10000000000000 ^
0]
0\
0[
b0 Z
0Y
0X
b0 W
0V
0U
b0 T
b0 S
0R
0Q
0P
b0 O
b1 N
1M
b0 L
1K
0J
b0 I
b0 H
0G
b0 F
0E
b0 D
b0 C
0B
b0 A
1@
1?
1>
0=
0<
b0 ;
bz :
b0 9
08
07
b0 6
05
14
03
b0 0
b0 /
b0 .
b0 -
b0 ,
b0 +
b0 *
b0 )
b0 (
b0 '
b0 &
b0 %
b0 $
b0 #
b0 "
b0 !
$end
#1000
04
#5000
b10 ("
b10 7"
b10 V"
1'"
1K
b10 g
b10 6"
b10 N
b10 1#
b10000100110110 ^
b10000100110110 v"
b10000100110110 |"
b1 {"
bz C
bz 0#
b1 ~
b1 B"
b1 d"
0!"
1p
b10000000000000 a
b10000000000000 y"
b1 O
b1 u"
b1 3#
13
#10000
03
#15000
b11 L
b11 k"
b11 N
b11 1#
b100010001 ^
b100010001 v"
b100010001 |"
b10 {"
b100110110 h
b1111111111110110 l
b1111111111110110 ^"
b1111111111110110 $#
b110110 m
b110110 ##
b110 b
b110 S"
b110 Z"
b110 l"
b11 c
b11 R"
b11 Y"
b1 6
b1 f
b1 X"
b10 O
b10 u"
b10 3#
b10000100110110 a
b10000100110110 y"
b10 j
b10 W"
b1 `
b1 ]"
b1 z"
1y
b10 z
b10 3"
b10 b"
b1 W
b1 G"
b1 (#
1Q
13
#20000
03
#25000
0@
b1111111111110110 %"
b1111111111110110 5"
b1111111111110110 >"
b1111111111110110 *"
b1111111111110110 2"
b1 L
b1 k"
b0 ("
b0 7"
b0 V"
0'"
1K
b1111111111110110 I
b100010001 h
b10001 l
b10001 ^"
b10001 $#
b10001 m
b10001 ##
b1 b
b1 S"
b1 Z"
b1 l"
b1 c
b1 R"
b1 Y"
b0 g
b0 6"
b100 N
b100 1#
b1100111100000111 ^
b1100111100000111 v"
b1100111100000111 |"
b11 {"
b1 F
b1 .#
1B
b10 ~
b10 B"
b10 d"
b1 s
b1 @"
b1 T"
b1 U"
b1 f"
b110 n
b110 M"
b110 j"
b11 o
b11 N"
b11 i"
b1111111111110110 w
b1111111111110110 c"
b1 t
b1 A"
b1 e"
b100010001 a
b100010001 y"
b11 j
b11 W"
b10 `
b10 ]"
b10 z"
b11 O
b11 u"
b11 3#
13
#30000
03
#35000
b1111111111101100 %"
b1111111111101100 5"
b1111111111101100 >"
b0 9
b0 i
b0 L
b0 k"
17
1[
b10 ("
b10 7"
b10 V"
1'"
1K
b1111111111110110 *"
b1111111111110110 2"
b1111111111110110 )"
b1111111111110110 #"
b1111111111110110 ?"
b1111111111110110 +"
b1111111111110110 1"
b1111111111110110 $"
b100000111 N
b100000111 1#
b10010100000001 ^
b10010100000001 v"
b10010100000001 |"
b100 {"
b100000111 h
b111 l
b111 ^"
b111 $#
b111 m
b111 ##
b111 b
b111 S"
b111 Z"
b111 l"
b0 c
b0 R"
b0 Y"
b1111 6
b1111 f
b1111 X"
1]
1k
b1100 g
b1100 6"
b10001 I
b10 |
b10 Q"
b10 }
b10 P"
b100 O
b100 u"
b100 3#
b1100111100000111 a
b1100111100000111 y"
b100 j
b100 W"
b11 `
b11 ]"
b11 z"
b11 ~
b11 B"
b11 d"
b1 n
b1 M"
b1 j"
b1 o
b1 N"
b1 i"
b10001 w
b10001 c"
b10 t
b10 A"
b10 e"
0y
b0 z
b0 3"
b0 b"
b10 W
b10 G"
b10 (#
b1 S
b1 I"
b1 K"
b1 )#
bx0xx0 ;
bx0xx0 :"
b1111111111110110 Z
b1111111111110110 F"
b1111111111110110 '#
b1 T
b1 H"
13
#40000
03
#45000
b100001000 N
b100001000 1#
b1111111111110110 A
b1111111111110110 m"
b111 *"
b111 2"
b0 ("
b0 7"
b0 V"
07
0[
0'"
1K
b0 )"
b0 +"
b0 1"
b0 #"
b0 ?"
b0 $"
b0 |
b0 Q"
b0 }
b0 P"
b111 I
b111 %"
b111 5"
b111 >"
b0 h
b0 l
b0 ^"
b0 $#
b0 m
b0 ##
b0 b
b0 S"
b0 Z"
b0 l"
b0 6
b0 f
b0 X"
0]
0k
b0 g
b0 6"
b10001100110000 ^
b10001100110000 v"
b10001100110000 |"
b111 {"
b1 D
b1 L"
b1 n"
b1 /#
b10 F
b10 .#
b1111111111110110 H
b1111111111110110 -#
b11 W
b11 G"
b11 (#
b1111111111110110 J"
b11111111111xx1x0 ;
b11111111111xx1x0 :"
b1111111111101100 Z
b1111111111101100 F"
b1111111111101100 '#
b10 T
b10 H"
b100 ~
b100 B"
b100 d"
1""
b1111 s
b1111 @"
b1111 T"
b1111 U"
b1111 f"
b111 n
b111 M"
b111 j"
b0 o
b0 N"
b0 i"
b111 w
b111 c"
b11 t
b11 A"
b11 e"
1y
b10 z
b10 3"
b10 b"
b0 a
b0 y"
b1 j
b1 W"
b0 `
b0 ]"
b0 z"
b100000111 O
b100000111 u"
b100000111 3#
13
#50000
03
#55000
1@
b0 %"
b0 5"
b0 >"
b11 L
b11 k"
b10 ("
b10 7"
b10 V"
1'"
1K
b0 *"
b0 2"
b1111111111101100 A
b1111111111101100 m"
b100001001 N
b100001001 1#
b1111001000110001 ^
b1111001000110001 v"
b1111001000110001 |"
b1000 {"
b100110000 h
b1111111111110000 l
b1111111111110000 ^"
b1111111111110000 $#
b110000 m
b110000 ##
b11 c
b11 R"
b11 Y"
b11 6
b11 f
b11 X"
b10 g
b10 6"
b0 I
b1111111111110110 "
b100001000 O
b100001000 u"
b100001000 3#
b10001100110000 a
b10001100110000 y"
b100001000 j
b100001000 W"
b100000111 `
b100000111 ]"
b100000111 z"
b1 ~
b1 B"
b1 d"
0""
b0 s
b0 @"
b0 T"
b0 U"
b0 f"
b0 n
b0 M"
b0 j"
b0 w
b0 c"
b0 t
b0 A"
b0 e"
0y
b0 z
b0 3"
b0 b"
b100 W
b100 G"
b100 (#
1X
b1111 S
b1111 I"
b1111 K"
b1111 )#
b0 J"
b0xxx ;
b0xxx :"
b111 Z
b111 F"
b111 '#
b11 T
b11 H"
b11 F
b11 .#
b1111111111101100 H
b1111111111101100 -#
13
#60000
03
#65000
0@
b1111111111110000 %"
b1111111111110000 5"
b1111111111110000 >"
b1111111111110000 *"
b1111111111110000 2"
b1111111111101100 d
b1111111111101100 ["
b1111111111101100 o"
b101 ("
b101 7"
b101 V"
0'"
1K
b100 A
b100 m"
b1111111111110000 I
b110001 h
b1111111111110001 l
b1111111111110001 ^"
b1111111111110001 $#
b110001 m
b110001 ##
b1 b
b1 S"
b1 Z"
b1 l"
b10 6
b10 f
b10 X"
b1111 g
b1111 6"
b100001010 N
b100001010 1#
b1101111100000000 ^
b1101111100000000 v"
b1101111100000000 |"
b1001 {"
b1111 D
b1111 L"
b1111 n"
b1111 /#
b100 F
b100 .#
b111 H
b111 -#
1G
b1 W
b1 G"
b1 (#
0X
b0 S
b0 I"
b0 K"
b0 )#
b0 ;
b0 :"
b0 Z
b0 F"
b0 '#
b0 T
b0 H"
b100001000 ~
b100001000 B"
b100001000 d"
b11 s
b11 @"
b11 T"
b11 U"
b11 f"
b11 o
b11 N"
b11 i"
b1111111111110000 w
b1111111111110000 c"
b100000111 t
b100000111 A"
b100000111 e"
1y
b10 z
b10 3"
b10 b"
b1111001000110001 a
b1111001000110001 y"
b100001001 j
b100001001 W"
b100001000 `
b100001000 ]"
b100001000 z"
b100001001 O
b100001001 u"
b100001001 3#
b1111111111101100 "
13
#70000
03
#75000
b100 8"
b100 9
b100 i
b100 e
b100 \"
b100 p"
b0 d
b0 ["
b0 o"
b1111 L
b1111 k"
b1111111111101100 )"
b1111111111101100 #"
b1111111111101100 ?"
b1111111111101100 *"
b1111111111101100 2"
17
1[
b10 ("
b10 7"
b10 V"
0K
b1111111111110000 +"
b1111111111110000 1"
b1111111111110000 $"
b100 N
b100 1#
b111000000000000 ^
b111000000000000 v"
b111000000000000 |"
b1010 {"
b100000000 h
b0 l
b0 ^"
b0 $#
b0 m
b0 ##
b0 b
b0 S"
b0 Z"
b0 l"
b0 c
b0 R"
b0 Y"
b1111 6
b1111 f
b1111 X"
1\
b1101 g
b1101 6"
b1111111111110001 I
0@
b101000000 %"
b101000000 5"
b101000000 >"
b10 }
b10 P"
b0 A
b0 m"
b100 (
b100001010 O
b100001010 u"
b100001010 3#
b1101111100000000 a
b1101111100000000 y"
b100001010 j
b100001010 W"
b100001001 `
b100001001 ]"
b100001001 z"
b100001001 ~
b100001001 B"
b100001001 d"
b10 s
b10 @"
b10 T"
b10 U"
b10 f"
b1 n
b1 M"
b1 j"
b1111111111110001 w
b1111111111110001 c"
b1111111111101100 q
b1111111111101100 h"
b100001000 t
b100001000 A"
b100001000 e"
0y
b101 z
b101 3"
b101 b"
b100001000 W
b100001000 G"
b100001000 (#
b11 S
b11 I"
b11 K"
b11 )#
bx0000 ;
bx0000 :"
b1111111111110000 Z
b1111111111110000 F"
b1111111111110000 '#
b100000111 T
b100000111 H"
b0 D
b0 L"
b0 n"
b0 /#
b1 F
b1 .#
b0 H
b0 -#
0G
13
#80000
03
#85000
b0 9
b0 i
1@
b0 *"
b0 2"
b0 8"
b0 e
b0 \"
b0 p"
b101 N
b101 1#
b1111111111110000 A
b1111111111110000 m"
b0 )"
b0 #"
b0 ?"
b0 L
b0 k"
1K
b0 ("
b0 7"
b0 V"
07
0[
b100 +"
b100 1"
b100 $"
b0 }
b0 P"
b0 I
b0 %"
b0 5"
b0 >"
b0 h
b0 6
b0 f
b0 X"
0\
b0 g
b0 6"
b10010100000001 ^
b10010100000001 v"
b10010100000001 |"
b100 {"
b11 D
b11 L"
b11 n"
b11 /#
b100001000 F
b100001000 .#
b1111111111110000 H
b1111111111110000 -#
b100001001 W
b100001001 G"
b100001001 (#
b10 S
b10 I"
b10 K"
b10 )#
b1111111111101100 J"
bx1x1x0xx00 ;
bx1x1x0xx00 :"
b101000000 Z
b101000000 F"
b101000000 '#
b100001000 T
b100001000 H"
b100001010 ~
b100001010 B"
b100001010 d"
b1111 s
b1111 @"
b1111 T"
b1111 U"
b1111 f"
b0 n
b0 M"
b0 j"
b0 o
b0 N"
b0 i"
b0 w
b0 c"
b0 q
b0 h"
b100 r
b100 g"
b100001001 t
b100001001 A"
b100001001 e"
b10 z
b10 3"
b10 b"
0p
b0 a
b0 y"
b1 j
b1 W"
b0 `
b0 ]"
b0 z"
b100 O
b100 u"
b100 3#
13
#90000
03
#95000
b1111111111101100 d
b1111111111101100 ["
b1111111111101100 o"
b0 +"
b0 1"
b0 $"
b10 ("
b10 7"
b10 V"
1'"
1K
b101000000 A
b101000000 m"
b110 N
b110 1#
b1011000100000010 ^
b1011000100000010 v"
b1011000100000010 |"
b101 {"
b100000001 h
b1 l
b1 ^"
b1 $#
b1 m
b1 ##
b1 b
b1 S"
b1 Z"
b1 l"
b101 6
b101 f
b101 X"
b10 g
b10 6"
1@
b0 %"
b0 5"
b0 >"
b1111111111110000 *
b101 O
b101 u"
b101 3#
b10010100000001 a
b10010100000001 y"
b101 j
b101 W"
b100 `
b100 ]"
b100 z"
b1 ~
b1 B"
b1 d"
b0 s
b0 @"
b0 T"
b0 U"
b0 f"
b0 r
b0 g"
b0 t
b0 A"
b0 e"
b0 z
b0 3"
b0 b"
1p
b100001010 W
b100001010 G"
b100001010 (#
b1111 S
b1111 I"
b1111 K"
b1111 )#
b0 J"
b0 ;
b0 :"
b0 Z
b0 F"
b0 '#
b100001001 T
b100001001 H"
0Q
b10 D
b10 L"
b10 n"
b10 /#
b100001001 F
b100001001 .#
b101000000 H
b101000000 -#
13
#100000
03
#105000
0@
b1 %"
b1 5"
b1 >"
b0 A
b0 m"
b1111111111101100 )"
b1111111111101100 #"
b1111111111101100 ?"
b1 *"
b1 2"
b101000000 d
b101000000 ["
b101000000 o"
b10 ("
b10 7"
b10 V"
0'"
1K
b1 I
b100000010 h
b10 l
b10 ^"
b10 $#
b10 m
b10 ##
b10 b
b10 S"
b10 Z"
b10 l"
b1 6
b1 f
b1 X"
b1011 g
b1011 6"
b111 N
b111 1#
b111000000000000 ^
b111000000000000 v"
b111000000000000 |"
b110 {"
b1111 D
b1111 L"
b1111 n"
b1111 /#
b100001010 F
b100001010 .#
b0 H
b0 -#
0B
b1 W
b1 G"
b1 (#
b0 S
b0 I"
b0 K"
b0 )#
b0 T
b0 H"
1Q
b101 ~
b101 B"
b101 d"
b101 s
b101 @"
b101 T"
b101 U"
b101 f"
b1 n
b1 M"
b1 j"
b1 w
b1 c"
b1111111111101100 q
b1111111111101100 h"
b100 t
b100 A"
b100 e"
1y
b10 z
b10 3"
b10 b"
b1011000100000010 a
b1011000100000010 y"
b110 j
b110 W"
b101 `
b101 ]"
b101 z"
b110 O
b110 u"
b110 3#
b101000000 )
13
#110000
03
#115000
1=
0>
0?
1<
b101000000 %"
b101000000 5"
b101000000 >"
b0 d
b0 ["
b0 o"
1{
b0 ("
b0 7"
b0 V"
0K
b101000000 )"
b101000000 #"
b101000000 ?"
b101000000 *"
b101000000 2"
b1000 N
b1000 1#
b10001100110000 ^
b10001100110000 v"
b10001100110000 |"
b111 {"
b0 h
b0 l
b0 ^"
b0 $#
b0 m
b0 ##
b0 b
b0 S"
b0 Z"
b0 l"
b0 6
b0 f
b0 X"
b111 g
b111 6"
b10 I
b111 O
b111 u"
b111 3#
b111000000000000 a
b111000000000000 y"
b111 j
b111 W"
b110 `
b110 ]"
b110 z"
b110 ~
b110 B"
b110 d"
b1 s
b1 @"
b1 T"
b1 U"
b1 f"
b10 n
b10 M"
b10 j"
b10 w
b10 c"
b101000000 q
b101000000 h"
b101 t
b101 A"
b101 e"
0y
b101 W
b101 G"
b101 (#
b101 S
b101 I"
b101 K"
b101 )#
b1111111111101100 J"
bx0xx0x ;
bx0xx0x :"
b1 Z
b1 F"
b1 '#
b100 T
b100 H"
b0 D
b0 L"
b0 n"
b0 /#
b1 F
b1 .#
1B
13
#120000
03
#125000
1{
1@
b0 %"
b0 5"
b0 >"
b0 *"
b0 2"
b1 A
b1 m"
b0 )"
b0 #"
b0 ?"
b0 I
b101 D
b101 L"
b101 n"
b101 /#
b101 F
b101 .#
b1 H
b1 -#
b110 W
b110 G"
b110 (#
b1 S
b1 I"
b1 K"
b1 )#
b101000000 J"
b101000000 ;
b101000000 :"
b101000000 Z
b101000000 F"
b101000000 '#
b101 T
b101 H"
b0 ~
b0 B"
b0 d"
b0 s
b0 @"
b0 T"
b0 U"
b0 f"
b0 n
b0 M"
b0 j"
b0 w
b0 c"
b0 q
b0 h"
b0 t
b0 A"
b0 e"
b0 z
b0 3"
b0 b"
0p
13
#130000
03
#135000
b101000000 A
b101000000 m"
b1 ,
b0 W
b0 G"
b0 (#
b0 S
b0 I"
b0 K"
b0 )#
b0 J"
b0 ;
b0 :"
b0 Z
b0 F"
b0 '#
b0 T
b0 H"
0Q
b1 D
b1 L"
b1 n"
b1 /#
b110 F
b110 .#
b101000000 H
b101000000 -#
13
#140000
03
#145000
b0 A
b0 m"
b0 D
b0 L"
b0 n"
b0 /#
b0 F
b0 .#
b0 H
b0 -#
0B
b101000000 "
13
