tb_cpu.vcd
$date
	Fri May 23 21:38:39 2025
$end
$version
	Icarus Verilog
$end
$timescale
	1ps
$end
$scope module tb_cpu $end
$var wire 16 ! r0 [15:0] $end
$var wire 16 " r1 [15:0] $end
$var wire 16 # r10 [15:0] $end
$var wire 16 $ r11 [15:0] $end
$var wire 16 % r12 [15:0] $end
$var wire 16 & r13 [15:0] $end
$var wire 16 ' r14 [15:0] $end
$var wire 16 ( r15 [15:0] $end
$var wire 16 ) r2 [15:0] $end
$var wire 16 * r3 [15:0] $end
$var wire 16 + r4 [15:0] $end
$var wire 16 , r5 [15:0] $end
$var wire 16 - r6 [15:0] $end
$var wire 16 . r7 [15:0] $end
$var wire 16 / r8 [15:0] $end
$var wire 16 0 r9 [15:0] $end
$var parameter 32 1 DATA_WIDTH $end
$var parameter 32 2 WIDTH $end
$var reg 1 3 clk $end
$var reg 1 4 reset $end
$scope module DUT $end
$var wire 1 3 clk $end
$var wire 1 5 id_ex_flush $end
$var wire 1 6 if_id_flush $end
$var wire 1 7 real_id_ex_flush $end
$var wire 1 8 real_if_id_stall $end
$var wire 1 9 real_if_id_write $end
$var wire 1 : real_pc_write $end
$var wire 1 4 reset $end
$var wire 1 ; zero_flag $end
$var wire 16 < wb_write_data [15:0] $end
$var wire 1 = wb_reg_write $end
$var wire 16 > wb_read_data [15:0] $end
$var wire 4 ? wb_rd [3:0] $end
$var wire 1 @ wb_mem_to_reg $end
$var wire 16 A wb_alu_result [15:0] $end
$var wire 1 B stall $end
$var wire 1 C reg_write $end
$var wire 1 D pc_write $end
$var wire 15 E pc_next [14:0] $end
$var wire 15 F pc_current [14:0] $end
$var wire 16 G mem_write_data [15:0] $end
$var wire 1 H mem_write $end
$var wire 1 I mem_reg_write $end
$var wire 16 J mem_read_data [15:0] $end
$var wire 1 K mem_read $end
$var wire 4 L mem_rd [3:0] $end
$var wire 15 M mem_pc [14:0] $end
$var wire 1 N mem_mem_write $end
$var wire 1 O mem_mem_read $end
$var wire 1 P mem_branch $end
$var wire 16 Q mem_alu_result [15:0] $end
$var wire 1 R ldpc $end
$var wire 15 S instr [14:0] $end
$var wire 1 T if_id_write $end
$var wire 15 U if_id_pc [14:0] $end
$var wire 15 V if_id_instr [14:0] $end
$var wire 4 W id_rt [3:0] $end
$var wire 4 X id_rs [3:0] $end
$var wire 16 Y id_reg_data2 [15:0] $end
$var wire 16 Z id_reg_data1 [15:0] $end
$var wire 4 [ id_rd [3:0] $end
$var wire 3 \ id_opcode [2:0] $end
$var wire 15 ] id_jump_target [14:0] $end
$var wire 16 ^ id_imm_ext [15:0] $end
$var wire 6 _ id_imm6 [5:0] $end
$var wire 4 ` id_ex_rt [3:0] $end
$var wire 4 a id_ex_rs [3:0] $end
$var wire 1 b id_ex_reg_write $end
$var wire 16 c id_ex_reg_data2 [15:0] $end
$var wire 16 d id_ex_reg_data1 [15:0] $end
$var wire 4 e id_ex_rd [3:0] $end
$var wire 15 f id_ex_pc [14:0] $end
$var wire 1 g id_ex_mem_write $end
$var wire 1 h id_ex_mem_read $end
$var wire 16 i id_ex_imm_ext [15:0] $end
$var wire 1 j id_ex_branch $end
$var wire 1 k id_ex_alu_src $end
$var wire 2 l id_ex_alu_op [1:0] $end
$var wire 1 m halt $end
$var wire 2 n forwardB [1:0] $end
$var wire 2 o forwardA [1:0] $end
$var wire 16 p ex_forw_B [15:0] $end
$var wire 16 q ex_forw_A [15:0] $end
$var wire 16 r ex_alu_result [15:0] $end
$var wire 1 s branch $end
$var wire 1 t alu_src $end
$var wire 2 u alu_op [1:0] $end
$var wire 16 v alu_in2_reg [15:0] $end
$var wire 16 w alu_in2 [15:0] $end
$var wire 16 x alu_in1 [15:0] $end
$var parameter 32 y DATA_WIDTH $end
$var parameter 32 z DMEM_DEPTH $end
$var parameter 32 { IMEM_DEPTH $end
$var parameter 32 | REGADDR_W $end
$var parameter 32 } WIDTH $end
$scope module ALU_I $end
$var wire 16 ~ a [15:0] $end
$var wire 16 !" b [15:0] $end
$var wire 1 ; zero $end
$var wire 2 "" alu_op [1:0] $end
$var parameter 32 #" DATA_WIDTH $end
$var reg 16 $" result [15:0] $end
$upscope $end
$scope module CONTROL $end
$var wire 3 %" opcode [2:0] $end
$var wire 1 ; zero $end
$var reg 2 &" alu_op [1:0] $end
$var reg 1 t alu_src $end
$var reg 1 s branch $end
$var reg 1 m halt $end
$var reg 1 R ldpc $end
$var reg 1 K mem_read $end
$var reg 1 H mem_write $end
$var reg 1 C reg_write $end
$upscope $end
$scope module DMEM $end
$var wire 8 '" addr [7:0] $end
$var wire 1 3 clk $end
$var wire 16 (" write_data [15:0] $end
$var wire 16 )" read_data [15:0] $end
$var wire 1 N mem_write $end
$var wire 1 O mem_read $end
$var parameter 32 *" ADDR_WIDTH $end
$var parameter 32 +" DATA_WIDTH $end
$var parameter 136 ," MEMFILE $end
$upscope $end
$scope module EX_MEM $end
$var wire 1 3 clk $end
$var wire 16 -" ex_alu_result [15:0] $end
$var wire 16 ." ex_reg_data2 [15:0] $end
$var wire 1 4 reset $end
$var wire 1 b ex_reg_write $end
$var wire 4 /" ex_rd [3:0] $end
$var wire 15 0" ex_pc [14:0] $end
$var wire 1 g ex_mem_write $end
$var wire 1 h ex_mem_read $end
$var wire 1 j ex_branch $end
$var parameter 32 1" DATA_WIDTH $end
$var parameter 32 2" PC_WIDTH $end
$var parameter 32 3" REGADDR_WIDTH $end
$var reg 16 4" mem_alu_result [15:0] $end
$var reg 1 P mem_branch $end
$var reg 1 O mem_mem_read $end
$var reg 1 N mem_mem_write $end
$var reg 15 5" mem_pc [14:0] $end
$var reg 4 6" mem_rd [3:0] $end
$var reg 1 I mem_reg_write $end
$var reg 16 7" mem_write_data [15:0] $end
$upscope $end
$scope module FORWARD_UNIT $end
$var wire 4 8" ex_mem_rd [3:0] $end
$var wire 1 I ex_mem_reg_write $end
$var wire 1 = wb_reg_write $end
$var wire 4 9" wb_rd [3:0] $end
$var wire 4 :" id_ex_rt [3:0] $end
$var wire 4 ;" id_ex_rs [3:0] $end
$var parameter 32 <" REGADDR_WIDTH $end
$var reg 2 =" forwardA [1:0] $end
$var reg 2 >" forwardB [1:0] $end
$upscope $end
$scope module HAZARD_UNIT $end
$var wire 4 ?" if_id_rs [3:0] $end
$var wire 4 @" if_id_rt [3:0] $end
$var wire 4 A" id_ex_rd [3:0] $end
$var wire 1 h id_ex_mem_read $end
$var parameter 32 B" REGADDR_WIDTH $end
$var reg 1 T if_id_write $end
$var reg 1 D pc_write $end
$var reg 1 B stall $end
$upscope $end
$scope module ID_EX $end
$var wire 1 3 clk $end
$var wire 1 7 flush $end
$var wire 2 C" id_alu_op [1:0] $end
$var wire 1 t id_alu_src $end
$var wire 1 s id_branch $end
$var wire 1 K id_mem_read $end
$var wire 1 H id_mem_write $end
$var wire 4 D" id_rd [3:0] $end
$var wire 1 C id_reg_write $end
$var wire 4 E" id_rs [3:0] $end
$var wire 4 F" id_rt [3:0] $end
$var wire 1 4 reset $end
$var wire 16 G" id_read_data2 [15:0] $end
$var wire 16 H" id_read_data1 [15:0] $end
$var wire 15 I" id_pc [14:0] $end
$var wire 16 J" id_imm [15:0] $end
$var parameter 32 K" DATA_WIDTH $end
$var parameter 32 L" PC_WIDTH $end
$var parameter 32 M" REGADDR_WIDTH $end
$var reg 2 N" ex_alu_op [1:0] $end
$var reg 1 k ex_alu_src $end
$var reg 1 j ex_branch $end
$var reg 16 O" ex_imm_ext [15:0] $end
$var reg 1 h ex_mem_read $end
$var reg 1 g ex_mem_write $end
$var reg 15 P" ex_pc [14:0] $end
$var reg 4 Q" ex_rd [3:0] $end
$var reg 16 R" ex_reg_data1 [15:0] $end
$var reg 16 S" ex_reg_data2 [15:0] $end
$var reg 1 b ex_reg_write $end
$var reg 4 T" ex_rs [3:0] $end
$var reg 4 U" ex_rt [3:0] $end
$upscope $end
$scope module ID_REGFILE $end
$var wire 1 3 clk $end
$var wire 4 V" read_reg1 [3:0] $end
$var wire 4 W" read_reg2 [3:0] $end
$var wire 1 4 reset $end
$var wire 16 X" write_data [15:0] $end
$var wire 4 Y" write_reg [3:0] $end
$var wire 1 = reg_write $end
$var wire 16 Z" read_data2 [15:0] $end
$var wire 16 [" read_data1 [15:0] $end
$var parameter 32 \" DATA_WIDTH $end
$var parameter 36 ]" NUM_REGS $end
$var parameter 32 ^" REGADDR_WIDTH $end
$scope begin $unm_blk_36 $end
$var integer 32 _" i [31:0] $end
$upscope $end
$upscope $end
$scope module IF_ID $end
$var wire 1 3 clk $end
$var wire 1 6 flush $end
$var wire 1 4 reset $end
$var wire 1 8 stall $end
$var wire 15 `" if_pc [14:0] $end
$var wire 15 a" if_instr [14:0] $end
$var parameter 32 b" INSTR_WIDTH $end
$var parameter 32 c" PC_WIDTH $end
$var reg 15 d" id_instr [14:0] $end
$var reg 15 e" id_pc [14:0] $end
$upscope $end
$scope module IMEM $end
$var wire 8 f" addr [7:0] $end
$var wire 15 g" instr [14:0] $end
$var parameter 32 h" ADDR_WIDTH $end
$var parameter 32 i" DATA_WIDTH $end
$var parameter 144 j" MEMFILE $end
$scope begin $unm_blk_3 $end
$var integer 32 k" i [31:0] $end
$upscope $end
$upscope $end
$scope module IMM_GEN $end
$var wire 6 l" imm_in [5:0] $end
$var wire 16 m" imm_out [15:0] $end
$var parameter 32 n" IN_WIDTH $end
$var parameter 32 o" OUT_WIDTH $end
$upscope $end
$scope module MEM_WB $end
$var wire 1 3 clk $end
$var wire 16 p" mem_alu_result [15:0] $end
$var wire 1 O mem_mem_read $end
$var wire 4 q" mem_rd [3:0] $end
$var wire 16 r" mem_read_data [15:0] $end
$var wire 1 I mem_reg_write $end
$var wire 1 4 reset $end
$var parameter 32 s" DATA_WIDTH $end
$var parameter 32 t" REGADDR_WIDTH $end
$var reg 16 u" wb_alu_result [15:0] $end
$var reg 1 @ wb_mem_to_reg $end
$var reg 4 v" wb_rd [3:0] $end
$var reg 16 w" wb_read_data [15:0] $end
$var reg 1 = wb_reg_write $end
$upscope $end
$scope module PC $end
$var wire 1 3 clk $end
$var wire 15 x" pc_in [14:0] $end
$var wire 1 : pc_write $end
$var wire 1 4 reset $end
$var parameter 32 y" WIDTH $end
$var reg 15 z" pc_out [14:0] $end
$upscope $end
$upscope $end
$upscope $end
$enddefinitions $end
$comment Show the parameter values. $end
$dumpall
b1111 y"
b100 t"
b10000 s"
b10000 o"
b110 n"
b10010010100010001001101001011110110100101101110011100110111010001110010010111110110100101101110011010010111010000101110011010000110010101111000 j"
b1111 i"
b1000 h"
b1111 c"
b1111 b"
b100 ^"
b10000 ]"
b10000 \"
b100 M"
b1111 L"
b10000 K"
b100 B"
b100 <"
b100 3"
b1111 2"
b10000 1"
b100100101000100010011010010111101100100011000010111010001100001010111110110100101101110011010010111010000101110011010000110010101111000 ,"
b10000 +"
b1000 *"
b10000 #"
b1111 }
b100 |
b100000000 {
b100000000 z
b10000 y
b1111 2
b10000 1
$end
#0
$dumpvars
b0 z"
b1 x"
b0 w"
b0 v"
b0 u"
bz r"
b0 q"
b0 p"
b0 m"
b0 l"
b100000000 k"
b10000000000000 g"
b0 f"
b0 e"
b0 d"
b10000000000000 a"
b0 `"
b10000 _"
b0 ["
b0 Z"
b0 Y"
b0 X"
b0 W"
b0 V"
b0 U"
b0 T"
b0 S"
b0 R"
b0 Q"
b0 P"
b0 O"
b0 N"
b0 J"
b0 I"
b0 H"
b0 G"
b0 F"
b0 E"
b0 D"
b0 C"
b0 A"
b0 @"
b0 ?"
b0 >"
b0 ="
b0 ;"
b0 :"
b0 9"
b0 8"
b0 7"
b0 6"
b0 5"
b0 4"
b0 0"
b0 /"
b0 ."
b0 -"
bz )"
b0 ("
b0 '"
b0 &"
b0 %"
b0 $"
b0 ""
b0 !"
b0 ~
b0 x
b0 w
b0 v
b0 u
0t
0s
b0 r
b0 q
b0 p
b0 o
b0 n
0m
b0 l
0k
0j
b0 i
0h
0g
b0 f
b0 e
b0 d
b0 c
0b
b0 a
b0 `
b0 _
b0 ^
b0 ]
b0 \
b0 [
b0 Z
b0 Y
b0 X
b0 W
b0 V
b0 U
1T
b10000000000000 S
0R
b0 Q
0P
0O
0N
b0 M
b0 L
0K
bz J
0I
0H
b0 G
b0 F
b1 E
1D
1C
0B
b0 A
0@
b0 ?
b0 >
0=
b0 <
1;
1:
19
08
07
06
05
14
03
b0 0
b0 /
b0 .
b0 -
b0 ,
b0 +
b0 *
b0 )
b0 (
b0 '
b0 &
b0 %
b0 $
b0 #
b0 "
b0 !
$end
#1000
04
#5000
b10 u
b10 &"
b10 C"
1t
1C
b10 \
b10 %"
b10 E
b10 x"
b10000100000001 S
b10000100000001 a"
b10000100000001 g"
b1 f"
bz >
bz w"
1b
b10000000000000 V
b10000000000000 d"
b1 F
b1 `"
b1 z"
13
#10000
03
#15000
b11 E
b11 x"
b10001000000000 S
b10001000000000 a"
b10001000000000 g"
b10 f"
b100000001 ]
b1 ^
b1 J"
b1 m"
b1 _
b1 l"
b1 W
b1 @"
b1 F"
b1 W"
b1 [
b1 D"
b10 F
b10 `"
b10 z"
b10000100000001 V
b10000100000001 d"
b1 U
b1 I"
b1 e"
1k
b10 l
b10 ""
b10 N"
1I
13
#20000
03
#25000
b10 u
b10 &"
b10 C"
1t
1C
0;
b1 r
b1 $"
b1 -"
b1 w
b1 !"
b0 ]
b0 ^
b0 J"
b0 m"
b0 _
b0 l"
b0 W
b0 @"
b0 F"
b0 W"
b10 [
b10 D"
b100 E
b100 x"
b10001100000000 S
b10001100000000 a"
b10001100000000 g"
b11 f"
1=
b1 e
b1 /"
b1 A"
b1 Q"
b1 `
b1 :"
b1 U"
b1 i
b1 O"
b1 f
b1 0"
b1 P"
b10001000000000 V
b10001000000000 d"
b10 U
b10 I"
b10 e"
b11 F
b11 `"
b11 z"
13
#30000
03
#35000
b10 u
b10 &"
b10 C"
1t
1C
1;
b0 r
b0 $"
b0 -"
b101 E
b101 x"
b10010100001001 S
b10010100001001 a"
b10010100001001 g"
b100 f"
b100000000 ]
b11 [
b11 D"
b0 w
b0 !"
b1 '"
b100 F
b100 `"
b100 z"
b10001100000000 V
b10001100000000 d"
b11 U
b11 I"
b11 e"
b10 e
b10 /"
b10 A"
b10 Q"
b0 `
b0 :"
b0 U"
b0 i
b0 O"
b10 f
b10 0"
b10 P"
b1 L
b1 6"
b1 8"
b1 q"
b1 Q
b1 4"
b1 p"
b1 M
b1 5"
13
#40000
03
#45000
b1 <
b1 X"
b0 '"
b100001001 ]
b1001 ^
b1001 J"
b1001 m"
b1001 _
b1001 l"
b1001 W
b1001 @"
b1001 F"
b1001 W"
b101 [
b101 D"
b110 E
b110 x"
b10011000000001 S
b10011000000001 a"
b10011000000001 g"
b101 f"
b1 ?
b1 9"
b1 Y"
b1 v"
b1 A
b1 u"
b10 L
b10 6"
b10 8"
b10 q"
b0 Q
b0 4"
b0 p"
b10 M
b10 5"
b11 e
b11 /"
b11 A"
b11 Q"
b11 f
b11 0"
b11 P"
b10010100001001 V
b10010100001001 d"
b100 U
b100 I"
b100 e"
b101 F
b101 `"
b101 z"
13
#50000
03
#55000
b10 u
b10 &"
b10 C"
1t
1C
b1 Y
b1 G"
b1 Z"
0;
b1001 r
b1001 $"
b1001 -"
b111 E
b111 x"
b1000000001 S
b1000000001 a"
b1000000001 g"
b110 f"
b1 ]
b1 ^
b1 J"
b1 m"
b1 _
b1 l"
b1 W
b1 @"
b1 F"
b1 W"
b110 [
b110 D"
b1001 w
b1001 !"
b0 <
b0 X"
b1 "
b110 F
b110 `"
b110 z"
b10011000000001 V
b10011000000001 d"
b101 U
b101 I"
b101 e"
b101 e
b101 /"
b101 A"
b101 Q"
b1001 `
b1001 :"
b1001 U"
b1001 i
b1001 O"
b100 f
b100 0"
b100 P"
b11 L
b11 6"
b11 8"
b11 q"
b11 M
b11 5"
b10 ?
b10 9"
b10 Y"
b10 v"
b0 A
b0 u"
13
#60000
03
#65000
b1 r
b1 $"
b1 -"
b1 v
b1 ."
b1 p
b0 u
b0 &"
b0 C"
0t
1C
b1001 '"
b1 w
b1 !"
b10 [
b10 D"
b0 \
b0 %"
b1000 E
b1000 x"
b10011 S
b10011 a"
b10011 g"
b111 f"
b11 ?
b11 9"
b11 Y"
b11 v"
b101 L
b101 6"
b101 8"
b101 q"
b1001 Q
b1001 4"
b1001 p"
b100 M
b100 5"
b110 e
b110 /"
b110 A"
b110 Q"
b1 `
b1 :"
b1 U"
b1 i
b1 O"
b1 c
b1 S"
b101 f
b101 0"
b101 P"
b1000000001 V
b1000000001 d"
b110 U
b110 I"
b110 e"
b111 F
b111 `"
b111 z"
13
#70000
03
#75000
b0 Y
b0 G"
b0 Z"
b1 Z
b1 H"
b1 ["
b1001 E
b1001 x"
b100100011 S
b100100011 a"
b100100011 g"
b1000 f"
b10011 ]
b10011 ^
b10011 J"
b10011 m"
b10011 _
b10011 l"
b11 W
b11 @"
b11 F"
b11 W"
b1 X
b1 ?"
b1 E"
b1 V"
b0 [
b0 D"
b1 '"
b1001 <
b1001 X"
b1000 F
b1000 `"
b1000 z"
b10011 V
b10011 d"
b111 U
b111 I"
b111 e"
b10 e
b10 /"
b10 A"
b10 Q"
b110 f
b110 0"
b110 P"
0k
b0 l
b0 ""
b0 N"
b110 L
b110 6"
b110 8"
b110 q"
b1 G
b1 ("
b1 7"
b1 Q
b1 4"
b1 p"
b101 M
b101 5"
b101 ?
b101 9"
b101 Y"
b101 v"
b1001 A
b1001 u"
13
#80000
03
#85000
b0 w
b0 !"
b1 r
b1 $"
b1 -"
b0 v
b0 ."
b0 p
b1 x
b1 ~
b1 q
b0 Z
b0 H"
b0 ["
b1 <
b1 X"
b100100011 ]
b1111111111100011 ^
b1111111111100011 J"
b1111111111100011 m"
b100011 _
b100011 l"
b10 X
b10 ?"
b10 E"
b10 V"
b1 [
b1 D"
b1010 E
b1010 x"
b1010101010110 S
b1010101010110 a"
b1010101010110 g"
b1001 f"
b110 ?
b110 9"
b110 Y"
b110 v"
b1 A
b1 u"
b10 L
b10 6"
b10 8"
b10 q"
b110 M
b110 5"
b0 e
b0 /"
b0 A"
b0 Q"
b11 `
b11 :"
b11 U"
b1 a
b1 ;"
b1 T"
b10011 i
b10011 O"
b0 c
b0 S"
b1 d
b1 R"
b111 f
b111 0"
b111 P"
b100100011 V
b100100011 d"
b1000 U
b1000 I"
b1000 e"
b1001 F
b1001 `"
b1001 z"
b1001 ,
13
#90000
03
#95000
b1 Y
b1 G"
b1 Z"
b11 u
b11 &"
b11 C"
1C
b1001 Z
b1001 H"
b1001 ["
b1011 E
b1011 x"
b111000000001100 S
b111000000001100 a"
b111000000001100 g"
b1010 f"
b101010110 ]
b10110 ^
b10110 J"
b10110 m"
b10110 _
b10110 l"
b110 W
b110 @"
b110 F"
b110 W"
b101 X
b101 ?"
b101 E"
b101 V"
b101 [
b101 D"
b1 \
b1 %"
b1 o
b1 ="
b1 -
b1010 F
b1010 `"
b1010 z"
b1010101010110 V
b1010101010110 d"
b1001 U
b1001 I"
b1001 e"
b1 e
b1 /"
b1 A"
b1 Q"
b10 a
b10 ;"
b10 T"
b1111111111100011 i
b1111111111100011 O"
b0 d
b0 R"
b1000 f
b1000 0"
b1000 P"
b0 L
b0 6"
b0 8"
b0 q"
b0 G
b0 ("
b0 7"
b111 M
b111 5"
b10 ?
b10 9"
b10 Y"
b10 v"
13
#100000
03
#105000
b1000 r
b1000 $"
b1000 -"
b1001 x
b1001 ~
b1001 q
b1 w
b1 !"
b1 v
b1 ."
b1 p
b0 Y
b0 G"
b0 Z"
b1 Z
b1 H"
b1 ["
b11 u
b11 &"
b11 C"
0C
b0 o
b0 ="
b1100 ]
b1100 ^
b1100 J"
b1100 m"
b1100 _
b1100 l"
b1100 W
b1100 @"
b1100 F"
b1100 W"
b0 X
b0 ?"
b0 E"
b0 V"
b0 [
b0 D"
b111 \
b111 %"
b1100 E
b1100 x"
b101000000000110 S
b101000000000110 a"
b101000000000110 g"
b1011 f"
b0 ?
b0 9"
b0 Y"
b0 v"
b1 L
b1 6"
b1 8"
b1 q"
b1000 M
b1000 5"
b101 e
b101 /"
b101 A"
b101 Q"
b110 `
b110 :"
b110 U"
b101 a
b101 ;"
b101 T"
b10110 i
b10110 O"
b1 c
b1 S"
b1001 d
b1001 R"
b1001 f
b1001 0"
b1001 P"
b11 l
b11 ""
b11 N"
b111000000001100 V
b111000000001100 d"
b1010 U
b1010 I"
b1010 e"
b1011 F
b1011 `"
b1011 z"
b1 )
13
#110000
03
#115000
17
15
b0 w
b0 !"
0;
b1 r
b1 $"
b1 -"
b1 Y
b1 G"
b1 Z"
16
1R
1t
b10 u
b10 &"
b10 C"
b0 v
b0 ."
b0 p
b1 x
b1 ~
b1 q
b110 E
b110 x"
b110000000000000 S
b110000000000000 a"
b110000000000000 g"
b1100 f"
b110 ]
b110 ^
b110 J"
b110 m"
b110 _
b110 l"
b110 W
b110 @"
b110 F"
b110 W"
b101 \
b101 %"
b1000 '"
b1 !
b1100 F
b1100 `"
b1100 z"
b101000000000110 V
b101000000000110 d"
b1011 U
b1011 I"
b1011 e"
b0 e
b0 /"
b0 A"
b0 Q"
b1100 `
b1100 :"
b1100 U"
b0 a
b0 ;"
b0 T"
b1100 i
b1100 O"
b0 c
b0 S"
b1 d
b1 R"
b1010 f
b1010 0"
b1010 P"
0b
b101 L
b101 6"
b101 8"
b101 q"
b1 G
b1 ("
b1 7"
b1000 Q
b1000 4"
b1000 p"
b1001 M
b1001 5"
b1 ?
b1 9"
b1 Y"
b1 v"
13
#120000
03
#125000
07
1;
b0 r
b0 $"
b0 -"
05
b0 x
b0 ~
b0 q
b111 E
b111 x"
1C
b0 u
b0 &"
b0 C"
06
0R
0t
b1000 <
b1000 X"
b1 '"
b0 ]
b0 ^
b0 J"
b0 m"
b0 _
b0 l"
b0 W
b0 @"
b0 F"
b0 W"
b0 \
b0 %"
b1000000001 S
b1000000001 a"
b1000000001 g"
b110 f"
b101 ?
b101 9"
b101 Y"
b101 v"
b1000 A
b1000 u"
b0 L
b0 6"
b0 8"
b0 q"
b0 G
b0 ("
b0 7"
b1 Q
b1 4"
b1 p"
b1010 M
b1010 5"
0I
b0 `
b0 :"
b0 U"
b0 i
b0 O"
b0 d
b0 R"
b0 f
b0 0"
b0 P"
b0 l
b0 ""
b0 N"
b0 V
b0 d"
b0 U
b0 I"
b0 e"
b110 F
b110 `"
b110 z"
13
#130000
03
#135000
1C
b1 w
b1 !"
0;
b10 r
b10 $"
b10 -"
b1 v
b1 ."
b1 p
b1 x
b1 ~
b1 q
b1000 E
b1000 x"
b10011 S
b10011 a"
b10011 g"
b111 f"
b1 ]
b1 ^
b1 J"
b1 m"
b1 _
b1 l"
b1 W
b1 @"
b1 F"
b1 W"
b10 [
b10 D"
b0 '"
b1 <
b1 X"
b1000 ,
b111 F
b111 `"
b111 z"
b1000000001 V
b1000000001 d"
b110 U
b110 I"
b110 e"
b1 c
b1 S"
b1 d
b1 R"
1b
b0 Q
b0 4"
b0 p"
b0 M
b0 5"
b0 ?
b0 9"
b0 Y"
b0 v"
b1 A
b1 u"
0=
13
#140000
03
#145000
b0 Y
b0 G"
b0 Z"
b0 <
b0 X"
b10 '"
b10011 ]
b10011 ^
b10011 J"
b10011 m"
b10011 _
b10011 l"
b11 W
b11 @"
b11 F"
b11 W"
b1 X
b1 ?"
b1 E"
b1 V"
b0 [
b0 D"
b1001 E
b1001 x"
b100100011 S
b100100011 a"
b100100011 g"
b1000 f"
b0 A
b0 u"
b1 G
b1 ("
b1 7"
b10 Q
b10 4"
b10 p"
1I
b10 e
b10 /"
b10 A"
b10 Q"
b1 `
b1 :"
b1 U"
b1 i
b1 O"
b110 f
b110 0"
b110 P"
b10011 V
b10011 d"
b111 U
b111 I"
b111 e"
b1000 F
b1000 `"
b1000 z"
13
#150000
03
#155000
b1 r
b1 $"
b1 -"
b0 w
b0 !"
b0 v
b0 ."
b0 p
b1010 E
b1010 x"
b1010101010110 S
b1010101010110 a"
b1010101010110 g"
b1001 f"
b100100011 ]
b1111111111100011 ^
b1111111111100011 J"
b1111111111100011 m"
b100011 _
b100011 l"
b10 X
b10 ?"
b10 E"
b10 V"
b1 [
b1 D"
b10 <
b10 X"
b1001 F
b1001 `"
b1001 z"
b100100011 V
b100100011 d"
b1000 U
b1000 I"
b1000 e"
b0 e
b0 /"
b0 A"
b0 Q"
b11 `
b11 :"
b11 U"
b1 a
b1 ;"
b1 T"
b10011 i
b10011 O"
b0 c
b0 S"
b111 f
b111 0"
b111 P"
b10 L
b10 6"
b10 8"
b10 q"
b110 M
b110 5"
b10 A
b10 u"
1=
13
#160000
03
#165000
b10 r
b10 $"
b10 -"
b10 x
b10 ~
b10 q
b1 Y
b1 G"
b1 Z"
b1000 Z
b1000 H"
b1000 ["
b11 u
b11 &"
b11 C"
1C
b1 '"
b1 o
b1 ="
b101010110 ]
b10110 ^
b10110 J"
b10110 m"
b10110 _
b10110 l"
b110 W
b110 @"
b110 F"
b110 W"
b101 X
b101 ?"
b101 E"
b101 V"
b101 [
b101 D"
b1 \
b1 %"
b1011 E
b1011 x"
b111000000001100 S
b111000000001100 a"
b111000000001100 g"
b1010 f"
b10 ?
b10 9"
b10 Y"
b10 v"
b0 L
b0 6"
b0 8"
b0 q"
b0 G
b0 ("
b0 7"
b1 Q
b1 4"
b1 p"
b111 M
b111 5"
b1 e
b1 /"
b1 A"
b1 Q"
b10 a
b10 ;"
b10 T"
b1111111111100011 i
b1111111111100011 O"
b1000 f
b1000 0"
b1000 P"
b1010101010110 V
b1010101010110 d"
b1001 U
b1001 I"
b1001 e"
b1010 F
b1010 `"
b1010 z"
b10 !
13
#170000
03
#175000
b111 r
b111 $"
b111 -"
b1 w
b1 !"
b1000 q
b1000 x
b1000 ~
b0 Y
b0 G"
b0 Z"
b1 Z
b1 H"
b1 ["
b11 u
b11 &"
b11 C"
0C
b1 v
b1 ."
b1 p
b1100 E
b1100 x"
b101000000000110 S
b101000000000110 a"
b101000000000110 g"
b1011 f"
b1100 ]
b1100 ^
b1100 J"
b1100 m"
b1100 _
b1100 l"
b1100 W
b1100 @"
b1100 F"
b1100 W"
b0 X
b0 ?"
b0 E"
b0 V"
b0 [
b0 D"
b111 \
b111 %"
b10 '"
b0 o
b0 ="
b1 <
b1 X"
b10 )
b1011 F
b1011 `"
b1011 z"
b111000000001100 V
b111000000001100 d"
b1010 U
b1010 I"
b1010 e"
b101 e
b101 /"
b101 A"
b101 Q"
b110 `
b110 :"
b110 U"
b101 a
b101 ;"
b101 T"
b10110 i
b10110 O"
b1 c
b1 S"
b1000 d
b1000 R"
b1001 f
b1001 0"
b1001 P"
b11 l
b11 ""
b11 N"
b1 L
b1 6"
b1 8"
b1 q"
b10 Q
b10 4"
b10 p"
b1000 M
b1000 5"
b0 ?
b0 9"
b0 Y"
b0 v"
b1 A
b1 u"
13
#180000
03
#185000
17
b0 w
b0 !"
0;
b1 r
b1 $"
b1 -"
15
b0 v
b0 ."
b0 p
b1 x
b1 ~
b1 q
b1 Y
b1 G"
b1 Z"
16
1R
1t
b10 u
b10 &"
b10 C"
b10 <
b10 X"
b111 '"
b110 ]
b110 ^
b110 J"
b110 m"
b110 _
b110 l"
b110 W
b110 @"
b110 F"
b110 W"
b101 \
b101 %"
b110 E
b110 x"
b110000000000000 S
b110000000000000 a"
b110000000000000 g"
b1100 f"
b1 ?
b1 9"
b1 Y"
b1 v"
b10 A
b10 u"
b101 L
b101 6"
b101 8"
b101 q"
b1 G
b1 ("
b1 7"
b111 Q
b111 4"
b111 p"
b1001 M
b1001 5"
b0 e
b0 /"
b0 A"
b0 Q"
b1100 `
b1100 :"
b1100 U"
b0 a
b0 ;"
b0 T"
b1100 i
b1100 O"
b0 c
b0 S"
b1 d
b1 R"
b1010 f
b1010 0"
b1010 P"
0b
b101000000000110 V
b101000000000110 d"
b1011 U
b1011 I"
b1011 e"
b1100 F
b1100 `"
b1100 z"
b1 !
13
#190000
03
#195000
07
05
1;
b0 r
b0 $"
b0 -"
b111 E
b111 x"
1C
b0 u
b0 &"
b0 C"
06
0R
0t
b0 x
b0 ~
b0 q
b1000000001 S
b1000000001 a"
b1000000001 g"
b110 f"
b0 ]
b0 ^
b0 J"
b0 m"
b0 _
b0 l"
b0 W
b0 @"
b0 F"
b0 W"
b0 \
b0 %"
b1 '"
b111 <
b111 X"
b10 "
b110 F
b110 `"
b110 z"
b0 V
b0 d"
b0 U
b0 I"
b0 e"
b0 `
b0 :"
b0 U"
b0 i
b0 O"
b0 d
b0 R"
b0 f
b0 0"
b0 P"
b0 l
b0 ""
b0 N"
b0 L
b0 6"
b0 8"
b0 q"
b0 G
b0 ("
b0 7"
b1 Q
b1 4"
b1 p"
b1010 M
b1010 5"
0I
b101 ?
b101 9"
b101 Y"
b101 v"
b111 A
b111 u"
13
#200000
03
#205000
1C
b1 w
b1 !"
0;
b10 r
b10 $"
b10 -"
b1 v
b1 ."
b1 p
b1 x
b1 ~
b1 q
b10 Y
b10 G"
b10 Z"
b1 <
b1 X"
b0 '"
b1 ]
b1 ^
b1 J"
b1 m"
b1 _
b1 l"
b1 W
b1 @"
b1 F"
b1 W"
b10 [
b10 D"
b1000 E
b1000 x"
b10011 S
b10011 a"
b10011 g"
b111 f"
b0 ?
b0 9"
b0 Y"
b0 v"
b1 A
b1 u"
0=
b0 Q
b0 4"
b0 p"
b0 M
b0 5"
b1 c
b1 S"
b1 d
b1 R"
1b
b1000000001 V
b1000000001 d"
b110 U
b110 I"
b110 e"
b111 F
b111 `"
b111 z"
b111 ,
13
#210000
03
