tb_cpu.vcd
$date
	Fri May 23 23:05:09 2025
$end
$version
	Icarus Verilog
$end
$timescale
	1ps
$end
$scope module tb_cpu $end
$var wire 16 ! r0 [15:0] $end
$var wire 16 " r1 [15:0] $end
$var wire 16 # r10 [15:0] $end
$var wire 16 $ r11 [15:0] $end
$var wire 16 % r12 [15:0] $end
$var wire 16 & r13 [15:0] $end
$var wire 16 ' r14 [15:0] $end
$var wire 16 ( r15 [15:0] $end
$var wire 16 ) r2 [15:0] $end
$var wire 16 * r3 [15:0] $end
$var wire 16 + r4 [15:0] $end
$var wire 16 , r5 [15:0] $end
$var wire 16 - r6 [15:0] $end
$var wire 16 . r7 [15:0] $end
$var wire 16 / r8 [15:0] $end
$var wire 16 0 r9 [15:0] $end
$var parameter 32 1 DATA_WIDTH $end
$var parameter 32 2 WIDTH $end
$var reg 1 3 clk $end
$var reg 1 4 reset $end
$scope module DUT $end
$var wire 1 3 clk $end
$var wire 1 5 id_ex_flush $end
$var wire 1 6 if_id_flush $end
$var wire 1 7 is_str_reg_indirect $end
$var wire 1 8 real_id_ex_flush $end
$var wire 1 9 real_if_id_stall $end
$var wire 1 : real_if_id_write $end
$var wire 1 ; real_pc_write $end
$var wire 1 4 reset $end
$var wire 1 < zero_flag $end
$var wire 16 = wb_write_data [15:0] $end
$var wire 1 > wb_reg_write $end
$var wire 16 ? wb_read_data [15:0] $end
$var wire 4 @ wb_rd [3:0] $end
$var wire 1 A wb_mem_to_reg $end
$var wire 16 B wb_alu_result [15:0] $end
$var wire 16 C str_addr [15:0] $end
$var wire 1 D stall $end
$var wire 1 E reg_write $end
$var wire 1 F pc_write $end
$var wire 16 G pc_next [15:0] $end
$var wire 16 H pc_current [15:0] $end
$var wire 16 I mem_write_data [15:0] $end
$var wire 1 J mem_write $end
$var wire 1 K mem_reg_write $end
$var wire 16 L mem_read_data [15:0] $end
$var wire 1 M mem_read $end
$var wire 4 N mem_rd [3:0] $end
$var wire 16 O mem_pc [15:0] $end
$var wire 1 P mem_mem_write $end
$var wire 1 Q mem_mem_read $end
$var wire 1 R mem_branch $end
$var wire 16 S mem_alu_result [15:0] $end
$var wire 1 T ldpc $end
$var wire 16 U instr [15:0] $end
$var wire 1 V if_id_write $end
$var wire 16 W if_id_pc [15:0] $end
$var wire 16 X if_id_instr [15:0] $end
$var wire 4 Y id_rt [3:0] $end
$var wire 4 Z id_rs [3:0] $end
$var wire 16 [ id_reg_data2 [15:0] $end
$var wire 16 \ id_reg_data1 [15:0] $end
$var wire 4 ] id_rd [3:0] $end
$var wire 4 ^ id_opcode [3:0] $end
$var wire 16 _ id_jump_target [15:0] $end
$var wire 16 ` id_imm_ext [15:0] $end
$var wire 6 a id_imm6 [5:0] $end
$var wire 4 b id_ex_rt [3:0] $end
$var wire 4 c id_ex_rs [3:0] $end
$var wire 1 d id_ex_reg_write $end
$var wire 16 e id_ex_reg_data2 [15:0] $end
$var wire 16 f id_ex_reg_data1 [15:0] $end
$var wire 4 g id_ex_rd [3:0] $end
$var wire 16 h id_ex_pc [15:0] $end
$var wire 1 i id_ex_mem_write $end
$var wire 1 j id_ex_mem_read $end
$var wire 16 k id_ex_imm_ext [15:0] $end
$var wire 1 l id_ex_branch $end
$var wire 1 m id_ex_alu_src $end
$var wire 3 n id_ex_alu_op [2:0] $end
$var wire 1 o halt $end
$var wire 2 p forwardB [1:0] $end
$var wire 2 q forwardA [1:0] $end
$var wire 1 r ex_is_str_reg_indirect $end
$var wire 16 s ex_forw_B [15:0] $end
$var wire 16 t ex_forw_A [15:0] $end
$var wire 16 u ex_alu_result [15:0] $end
$var wire 1 v branch $end
$var wire 1 w alu_src $end
$var wire 3 x alu_op [2:0] $end
$var wire 16 y alu_in2_reg [15:0] $end
$var wire 16 z alu_in2 [15:0] $end
$var wire 16 { alu_in1 [15:0] $end
$var parameter 32 | DATA_WIDTH $end
$var parameter 32 } DMEM_DEPTH $end
$var parameter 32 ~ IMEM_DEPTH $end
$var parameter 32 !" REGADDR_W $end
$var parameter 32 "" WIDTH $end
$scope module ALU_I $end
$var wire 16 #" a [15:0] $end
$var wire 16 $" b [15:0] $end
$var wire 1 < zero $end
$var wire 3 %" alu_op [2:0] $end
$var parameter 32 &" DATA_WIDTH $end
$var reg 16 '" result [15:0] $end
$upscope $end
$scope module CONTROL $end
$var wire 4 (" opcode [3:0] $end
$var wire 1 < zero $end
$var reg 3 )" alu_op [2:0] $end
$var reg 1 w alu_src $end
$var reg 1 v branch $end
$var reg 1 o halt $end
$var reg 1 T ldpc $end
$var reg 1 M mem_read $end
$var reg 1 J mem_write $end
$var reg 1 E reg_write $end
$upscope $end
$scope module DMEM $end
$var wire 8 *" addr [7:0] $end
$var wire 1 3 clk $end
$var wire 16 +" write_data [15:0] $end
$var wire 16 ," read_data [15:0] $end
$var wire 1 P mem_write $end
$var wire 1 Q mem_read $end
$var parameter 32 -" ADDR_WIDTH $end
$var parameter 32 ." DATA_WIDTH $end
$var parameter 136 /" MEMFILE $end
$upscope $end
$scope module EX_MEM $end
$var wire 1 3 clk $end
$var wire 16 0" ex_alu_result [15:0] $end
$var wire 16 1" ex_reg_data2 [15:0] $end
$var wire 1 4 reset $end
$var wire 1 d ex_reg_write $end
$var wire 4 2" ex_rd [3:0] $end
$var wire 16 3" ex_pc [15:0] $end
$var wire 1 i ex_mem_write $end
$var wire 1 j ex_mem_read $end
$var wire 1 l ex_branch $end
$var parameter 32 4" DATA_WIDTH $end
$var parameter 32 5" PC_WIDTH $end
$var parameter 32 6" REGADDR_WIDTH $end
$var reg 16 7" mem_alu_result [15:0] $end
$var reg 1 R mem_branch $end
$var reg 1 Q mem_mem_read $end
$var reg 1 P mem_mem_write $end
$var reg 16 8" mem_pc [15:0] $end
$var reg 4 9" mem_rd [3:0] $end
$var reg 1 K mem_reg_write $end
$var reg 16 :" mem_write_data [15:0] $end
$upscope $end
$scope module FORWARD_UNIT $end
$var wire 4 ;" ex_mem_rd [3:0] $end
$var wire 1 K ex_mem_reg_write $end
$var wire 1 > wb_reg_write $end
$var wire 4 <" wb_rd [3:0] $end
$var wire 4 =" id_ex_rt [3:0] $end
$var wire 4 >" id_ex_rs [3:0] $end
$var parameter 32 ?" REGADDR_WIDTH $end
$var reg 2 @" forwardA [1:0] $end
$var reg 2 A" forwardB [1:0] $end
$upscope $end
$scope module HAZARD_UNIT $end
$var wire 4 B" if_id_rs [3:0] $end
$var wire 4 C" if_id_rt [3:0] $end
$var wire 4 D" id_ex_rd [3:0] $end
$var wire 1 j id_ex_mem_read $end
$var parameter 32 E" REGADDR_WIDTH $end
$var reg 1 V if_id_write $end
$var reg 1 F pc_write $end
$var reg 1 D stall $end
$upscope $end
$scope module ID_EX $end
$var wire 1 3 clk $end
$var wire 1 8 flush $end
$var wire 3 F" id_alu_op [2:0] $end
$var wire 1 w id_alu_src $end
$var wire 1 v id_branch $end
$var wire 1 7 id_is_str_reg_indirect $end
$var wire 1 M id_mem_read $end
$var wire 1 J id_mem_write $end
$var wire 4 G" id_rd [3:0] $end
$var wire 1 E id_reg_write $end
$var wire 4 H" id_rs [3:0] $end
$var wire 4 I" id_rt [3:0] $end
$var wire 1 4 reset $end
$var wire 16 J" id_read_data2 [15:0] $end
$var wire 16 K" id_read_data1 [15:0] $end
$var wire 16 L" id_pc [15:0] $end
$var wire 16 M" id_imm [15:0] $end
$var parameter 32 N" DATA_WIDTH $end
$var parameter 32 O" PC_WIDTH $end
$var parameter 32 P" REGADDR_WIDTH $end
$var reg 3 Q" ex_alu_op [2:0] $end
$var reg 1 m ex_alu_src $end
$var reg 1 l ex_branch $end
$var reg 16 R" ex_imm_ext [15:0] $end
$var reg 1 r ex_is_str_reg_indirect $end
$var reg 1 j ex_mem_read $end
$var reg 1 i ex_mem_write $end
$var reg 16 S" ex_pc [15:0] $end
$var reg 4 T" ex_rd [3:0] $end
$var reg 16 U" ex_reg_data1 [15:0] $end
$var reg 16 V" ex_reg_data2 [15:0] $end
$var reg 1 d ex_reg_write $end
$var reg 4 W" ex_rs [3:0] $end
$var reg 4 X" ex_rt [3:0] $end
$upscope $end
$scope module ID_REGFILE $end
$var wire 1 3 clk $end
$var wire 4 Y" read_reg1 [3:0] $end
$var wire 4 Z" read_reg2 [3:0] $end
$var wire 1 4 reset $end
$var wire 16 [" write_data [15:0] $end
$var wire 4 \" write_reg [3:0] $end
$var wire 1 > reg_write $end
$var wire 16 ]" read_data2 [15:0] $end
$var wire 16 ^" read_data1 [15:0] $end
$var parameter 32 _" DATA_WIDTH $end
$var parameter 36 `" NUM_REGS $end
$var parameter 32 a" REGADDR_WIDTH $end
$scope begin $unm_blk_38 $end
$var integer 32 b" i [31:0] $end
$upscope $end
$upscope $end
$scope module IF_ID $end
$var wire 1 3 clk $end
$var wire 1 6 flush $end
$var wire 1 4 reset $end
$var wire 1 9 stall $end
$var wire 16 c" if_pc [15:0] $end
$var wire 16 d" if_instr [15:0] $end
$var parameter 32 e" INSTR_WIDTH $end
$var parameter 32 f" PC_WIDTH $end
$var reg 16 g" id_instr [15:0] $end
$var reg 16 h" id_pc [15:0] $end
$upscope $end
$scope module IMEM $end
$var wire 8 i" addr [7:0] $end
$var wire 16 j" instr [15:0] $end
$var parameter 32 k" ADDR_WIDTH $end
$var parameter 32 l" DATA_WIDTH $end
$var parameter 144 m" MEMFILE $end
$scope begin $unm_blk_4 $end
$var integer 32 n" i [31:0] $end
$upscope $end
$upscope $end
$scope module IMM_GEN $end
$var wire 6 o" imm_in [5:0] $end
$var wire 16 p" imm_out [15:0] $end
$var parameter 32 q" IN_WIDTH $end
$var parameter 32 r" OUT_WIDTH $end
$upscope $end
$scope module MEM_WB $end
$var wire 1 3 clk $end
$var wire 16 s" mem_alu_result [15:0] $end
$var wire 1 Q mem_mem_read $end
$var wire 4 t" mem_rd [3:0] $end
$var wire 16 u" mem_read_data [15:0] $end
$var wire 1 K mem_reg_write $end
$var wire 1 4 reset $end
$var parameter 32 v" DATA_WIDTH $end
$var parameter 32 w" REGADDR_WIDTH $end
$var reg 16 x" wb_alu_result [15:0] $end
$var reg 1 A wb_mem_to_reg $end
$var reg 4 y" wb_rd [3:0] $end
$var reg 16 z" wb_read_data [15:0] $end
$var reg 1 > wb_reg_write $end
$upscope $end
$scope module PC $end
$var wire 1 3 clk $end
$var wire 16 {" pc_in [15:0] $end
$var wire 1 ; pc_write $end
$var wire 1 4 reset $end
$var parameter 32 |" WIDTH $end
$var reg 16 }" pc_out [15:0] $end
$upscope $end
$upscope $end
$upscope $end
$enddefinitions $end
$comment Show the parameter values. $end
$dumpall
b10000 |"
b100 w"
b10000 v"
b10000 r"
b110 q"
b10010010100010001001101001011110110100101101110011100110111010001110010010111110110100101101110011010010111010000101110011010000110010101111000 m"
b10000 l"
b1000 k"
b10000 f"
b10000 e"
b100 a"
b10000 `"
b10000 _"
b100 P"
b10000 O"
b10000 N"
b100 E"
b100 ?"
b100 6"
b10000 5"
b10000 4"
b100100101000100010011010010111101100100011000010111010001100001010111110110100101101110011010010111010000101110011010000110010101111000 /"
b10000 ."
b1000 -"
b10000 &"
b10000 ""
b100 !"
b100000000 ~
b100000000 }
b10000 |
b10000 2
b10000 1
$end
#0
$dumpvars
b0 }"
b1 {"
b0 z"
b0 y"
b0 x"
bz u"
b0 t"
b0 s"
b0 p"
b0 o"
b100000000 n"
b10000000000000 j"
b0 i"
b0 h"
b0 g"
b10000000000000 d"
b0 c"
b10000 b"
b0 ^"
b0 ]"
b0 \"
b0 ["
b0 Z"
b0 Y"
b0 X"
b0 W"
b0 V"
b0 U"
b0 T"
b0 S"
b0 R"
b0 Q"
b0 M"
b0 L"
b0 K"
b0 J"
b0 I"
b0 H"
b0 G"
b0 F"
b0 D"
b0 C"
b0 B"
b0 A"
b0 @"
b0 >"
b0 ="
b0 <"
b0 ;"
b0 :"
b0 9"
b0 8"
b0 7"
b0 3"
b0 2"
b0 1"
b0 0"
bz ,"
b0 +"
b0 *"
b0 )"
b0 ("
b0 '"
b0 %"
b0 $"
b0 #"
b0 {
b0 z
b0 y
b0 x
0w
0v
b0 u
b0 t
b0 s
xr
b0 q
b0 p
0o
b0 n
0m
0l
b0 k
0j
0i
b0 h
b0 g
b0 f
b0 e
0d
b0 c
b0 b
b0 a
b0 `
b0 _
b0 ^
b0 ]
b0 \
b0 [
b0 Z
b0 Y
b0 X
b0 W
1V
b10000000000000 U
0T
b0 S
0R
0Q
0P
b0 O
b0 N
0M
bz L
0K
0J
b0 I
b0 H
b1 G
1F
1E
0D
b0 C
b0 B
0A
b0 @
b0 ?
0>
b0 =
1<
1;
1:
09
08
07
06
05
14
03
b0 0
b0 /
b0 .
b0 -
b0 ,
b0 +
b0 *
b0 )
b0 (
b0 '
b0 &
b0 %
b0 $
b0 #
b0 "
b0 !
$end
#1000
04
#5000
b10 x
b10 )"
b10 F"
1w
1E
b10 ^
b10 ("
b10 G
b10 {"
b10000100000001 U
b10000100000001 d"
b10000100000001 j"
b1 i"
bz ?
bz z"
0r
1d
b10000000000000 X
b10000000000000 g"
b1 H
b1 c"
b1 }"
13
#10000
03
#15000
b11 G
b11 {"
b10001000000000 U
b10001000000000 d"
b10001000000000 j"
b10 i"
b100000001 _
b1 `
b1 M"
b1 p"
b1 a
b1 o"
b1 Y
b1 C"
b1 I"
b1 Z"
b1 ]
b1 G"
b10 H
b10 c"
b10 }"
b10000100000001 X
b10000100000001 g"
b1 W
b1 L"
b1 h"
1m
b10 n
b10 %"
b10 Q"
1K
13
#20000
03
#25000
b10 x
b10 )"
b10 F"
1w
1E
0<
b1 u
b1 '"
b1 0"
b1 z
b1 $"
b1 C
b0 _
b0 `
b0 M"
b0 p"
b0 a
b0 o"
b0 Y
b0 C"
b0 I"
b0 Z"
b10 ]
b10 G"
b100 G
b100 {"
b10001100000000 U
b10001100000000 d"
b10001100000000 j"
b11 i"
1>
b1 g
b1 2"
b1 D"
b1 T"
b1 b
b1 ="
b1 X"
b1 k
b1 R"
b1 h
b1 3"
b1 S"
b10001000000000 X
b10001000000000 g"
b10 W
b10 L"
b10 h"
b11 H
b11 c"
b11 }"
13
#30000
03
#35000
b10 x
b10 )"
b10 F"
1w
1E
1<
b0 u
b0 '"
b0 0"
b0 z
b0 $"
b101 G
b101 {"
b10010000000000 U
b10010000000000 d"
b10010000000000 j"
b100 i"
b100000000 _
b11 ]
b11 G"
b0 C
b1 *"
b100 H
b100 c"
b100 }"
b10001100000000 X
b10001100000000 g"
b11 W
b11 L"
b11 h"
b10 g
b10 2"
b10 D"
b10 T"
b0 b
b0 ="
b0 X"
b0 k
b0 R"
b10 h
b10 3"
b10 S"
b1 N
b1 9"
b1 ;"
b1 t"
b1 S
b1 7"
b1 s"
b1 O
b1 8"
13
#40000
03
#45000
b1 =
b1 ["
b0 *"
b0 _
b100 ]
b100 G"
b110 G
b110 {"
b10010100001001 U
b10010100001001 d"
b10010100001001 j"
b101 i"
b1 @
b1 <"
b1 \"
b1 y"
b1 B
b1 x"
b10 N
b10 9"
b10 ;"
b10 t"
b0 S
b0 7"
b0 s"
b10 O
b10 8"
b11 g
b11 2"
b11 D"
b11 T"
b11 h
b11 3"
b11 S"
b10010000000000 X
b10010000000000 g"
b100 W
b100 L"
b100 h"
b101 H
b101 c"
b101 }"
13
#50000
03
#55000
b111 G
b111 {"
b10011000000001 U
b10011000000001 d"
b10011000000001 j"
b110 i"
b100001001 _
b1001 `
b1001 M"
b1001 p"
b1001 a
b1001 o"
b1001 Y
b1001 C"
b1001 I"
b1001 Z"
b101 ]
b101 G"
b0 =
b0 ["
b1 "
b110 H
b110 c"
b110 }"
b10010100001001 X
b10010100001001 g"
b101 W
b101 L"
b101 h"
b100 g
b100 2"
b100 D"
b100 T"
b100 h
b100 3"
b100 S"
b11 N
b11 9"
b11 ;"
b11 t"
b11 O
b11 8"
b10 @
b10 <"
b10 \"
b10 y"
b0 B
b0 x"
13
#60000
03
#65000
b10 x
b10 )"
b10 F"
1w
1E
0<
b1001 u
b1001 '"
b1001 0"
b1001 z
b1001 $"
b1 [
b1 J"
b1 ]"
b1001 C
b1 _
b1 `
b1 M"
b1 p"
b1 a
b1 o"
b1 Y
b1 C"
b1 I"
b1 Z"
b110 ]
b110 G"
b1000 G
b1000 {"
b1000000001 U
b1000000001 d"
b1000000001 j"
b111 i"
b11 @
b11 <"
b11 \"
b11 y"
b100 N
b100 9"
b100 ;"
b100 t"
b100 O
b100 8"
b101 g
b101 2"
b101 D"
b101 T"
b1001 b
b1001 ="
b1001 X"
b1001 k
b1001 R"
b101 h
b101 3"
b101 S"
b10011000000001 X
b10011000000001 g"
b110 W
b110 L"
b110 h"
b111 H
b111 c"
b111 }"
13
#70000
03
#75000
b1 u
b1 '"
b1 0"
b0 x
b0 )"
b0 F"
0w
1E
b1 z
b1 $"
b1 y
b1 s
b1001 G
b1001 {"
b1001000101000001 U
b1001000101000001 d"
b1001000101000001 j"
b1000 i"
b10 ]
b10 G"
b0 ^
b0 ("
b1 C
b1001 *"
b1000 H
b1000 c"
b1000 }"
b1000000001 X
b1000000001 g"
b111 W
b111 L"
b111 h"
b110 g
b110 2"
b110 D"
b110 T"
b1 b
b1 ="
b1 X"
b1 k
b1 R"
b1 e
b1 V"
b110 h
b110 3"
b110 S"
b101 N
b101 9"
b101 ;"
b101 t"
b1001 S
b1001 7"
b1001 s"
b101 O
b101 8"
b100 @
b100 <"
b100 \"
b100 y"
13
#80000
03
#85000
17
b10 x
b10 )"
b10 F"
1w
1J
0E
b1001 =
b1001 ["
b1 *"
b101000001 _
b100 Z
b100 B"
b100 H"
b100 Y"
b1 ]
b1 G"
b1001 ^
b1001 ("
b1010 G
b1010 {"
b10001000110 U
b10001000110 d"
b10001000110 j"
b1001 i"
b101 @
b101 <"
b101 \"
b101 y"
b1001 B
b1001 x"
b110 N
b110 9"
b110 ;"
b110 t"
b1 S
b1 7"
b1 s"
b110 O
b110 8"
b10 g
b10 2"
b10 D"
b10 T"
b111 h
b111 3"
b111 S"
0m
b0 n
b0 %"
b0 Q"
b1001000101000001 X
b1001000101000001 g"
b1000 W
b1000 L"
b1000 h"
b1001 H
b1001 c"
b1001 }"
13
#90000
03
#95000
1<
b0 u
b0 '"
b0 0"
b1 [
b1 J"
b1 ]"
07
1E
b0 x
b0 )"
b0 F"
0w
0J
b0 z
b0 $"
b1011 G
b1011 {"
b10011 U
b10011 d"
b10011 j"
b1010 i"
b1000110 _
b110 `
b110 M"
b110 p"
b110 a
b110 o"
b110 Y
b110 C"
b110 I"
b110 Z"
b100 ]
b100 G"
b0 ^
b0 ("
b0 C
b1 =
b1 ["
b1001 ,
b1010 H
b1010 c"
b1010 }"
b10001000110 X
b10001000110 g"
b1001 W
b1001 L"
b1001 h"
1r
b1 g
b1 2"
b1 D"
b1 T"
b100 c
b100 >"
b100 W"
b1000 h
b1000 3"
b1000 S"
1m
b10 n
b10 %"
b10 Q"
1i
0d
b10 N
b10 9"
b10 ;"
b10 t"
b111 O
b111 8"
b110 @
b110 <"
b110 \"
b110 y"
b1 B
b1 x"
13
#100000
03
#105000
1E
0<
b1 u
b1 '"
b1 0"
b0 [
b0 J"
b0 ]"
b1 z
b1 $"
b1 \
b1 K"
b1 ^"
b0 *"
b110 C
b10011 _
b10011 `
b10011 M"
b10011 p"
b10011 a
b10011 o"
b11 Y
b11 C"
b11 I"
b11 Z"
b1 Z
b1 B"
b1 H"
b1 Y"
b0 ]
b0 G"
b1100 G
b1100 {"
b100100011 U
b100100011 d"
b100100011 j"
b1011 i"
b10 @
b10 <"
b10 \"
b10 y"
b1 N
b1 9"
b1 ;"
b1 t"
b0 S
b0 7"
b0 s"
b1000 O
b1000 8"
1P
0K
0r
b100 g
b100 2"
b100 D"
b100 T"
b110 b
b110 ="
b110 X"
b110 k
b110 R"
b1001 h
b1001 3"
b1001 S"
0m
b0 n
b0 %"
b0 Q"
0i
1d
b10011 X
b10011 g"
b1010 W
b1010 L"
b1010 h"
b1011 H
b1011 c"
b1011 }"
b1 -
13
#110000
03
#115000
b0 z
b0 $"
b1 u
b1 '"
b1 0"
b0 y
b0 s
b1 {
b1 #"
b1 t
b1 1"
b1101 G
b1101 {"
b1010101010110 U
b1010101010110 d"
b1010101010110 j"
b1100 i"
b100100011 _
b1111111111100011 `
b1111111111100011 M"
b1111111111100011 p"
b100011 a
b100011 o"
b10 Z
b10 B"
b10 H"
b10 Y"
b1 ]
b1 G"
b10011 C
b1 *"
b0 =
b0 ["
b1 )
b1100 H
b1100 c"
b1100 }"
b100100011 X
b100100011 g"
b1011 W
b1011 L"
b1011 h"
b0 g
b0 2"
b0 D"
b0 T"
b11 b
b11 ="
b11 X"
b1 c
b1 >"
b1 W"
b10011 k
b10011 R"
b0 e
b0 V"
b1 f
b1 U"
b1010 h
b1010 3"
b1010 S"
b100 N
b100 9"
b100 ;"
b100 t"
b1 S
b1 7"
b1 s"
b1001 O
b1001 8"
0P
1K
b1 @
b1 <"
b1 \"
b1 y"
b0 B
b0 x"
0>
13
#120000
03
#125000
b1 [
b1 J"
b1 ]"
b1001 \
b1001 K"
b1001 ^"
b11 x
b11 )"
b11 F"
1E
b1 =
b1 ["
b1111111111100011 C
b101010110 _
b10110 `
b10110 M"
b10110 p"
b10110 a
b10110 o"
b110 Y
b110 C"
b110 I"
b110 Z"
b101 Z
b101 B"
b101 H"
b101 Y"
b101 ]
b101 G"
b1 ^
b1 ("
b1110 G
b1110 {"
b1000000000001111 U
b1000000000001111 d"
b1000000000001111 j"
b1101 i"
b100 @
b100 <"
b100 \"
b100 y"
b1 B
b1 x"
1>
b0 N
b0 9"
b0 ;"
b0 t"
b1 I
b1 +"
b1 :"
b1010 O
b1010 8"
b1 g
b1 2"
b1 D"
b1 T"
b10 c
b10 >"
b10 W"
b1111111111100011 k
b1111111111100011 R"
b1011 h
b1011 3"
b1011 S"
b1010101010110 X
b1010101010110 g"
b1100 W
b1100 L"
b1100 h"
b1101 H
b1101 c"
b1101 }"
13
#130000
03
#135000
b1 z
b1 $"
b1000 u
b1000 '"
b1000 0"
b0 [
b0 J"
b0 ]"
b1 \
b1 K"
b1 ^"
b11 x
b11 )"
b11 F"
0E
b1 y
b1 s
b1001 {
b1001 #"
b1001 t
b1001 1"
b1111 G
b1111 {"
b110000000000111 U
b110000000000111 d"
b110000000000111 j"
b1110 i"
b1111 _
b1111 `
b1111 M"
b1111 p"
b1111 a
b1111 o"
b1111 Y
b1111 C"
b1111 I"
b1111 Z"
b0 Z
b0 B"
b0 H"
b0 Y"
b0 ]
b0 G"
b1000 ^
b1000 ("
b10110 C
b1 +
b1110 H
b1110 c"
b1110 }"
b1000000000001111 X
b1000000000001111 g"
b1101 W
b1101 L"
b1101 h"
b101 g
b101 2"
b101 D"
b101 T"
b110 b
b110 ="
b110 X"
b101 c
b101 >"
b101 W"
b10110 k
b10110 R"
b1 e
b1 V"
b1001 f
b1001 U"
b1100 h
b1100 3"
b1100 S"
b11 n
b11 %"
b11 Q"
b1 N
b1 9"
b1 ;"
b1 t"
b1011 O
b1011 8"
b0 @
b0 <"
b0 \"
b0 y"
13
#140000
03
#145000
b0 z
b0 $"
18
0<
b1 u
b1 '"
b1 0"
15
b0 y
b0 s
b1 {
b1 #"
b1 t
b1 1"
16
1T
1w
b10 x
b10 )"
b10 F"
b1000 *"
b1111 C
b111 _
b111 `
b111 M"
b111 p"
b111 a
b111 o"
b111 Y
b111 C"
b111 I"
b111 Z"
b110 ^
b110 ("
b111 G
b111 {"
b111000000000000 U
b111000000000000 d"
b111000000000000 j"
b1111 i"
b1 @
b1 <"
b1 \"
b1 y"
b101 N
b101 9"
b101 ;"
b101 t"
b1001 I
b1001 +"
b1001 :"
b1000 S
b1000 7"
b1000 s"
b1100 O
b1100 8"
b0 g
b0 2"
b0 D"
b0 T"
b1111 b
b1111 ="
b1111 X"
b0 c
b0 >"
b0 W"
b1111 k
b1111 R"
b0 e
b0 V"
b1 f
b1 U"
b1101 h
b1101 3"
b1101 S"
0d
b110000000000111 X
b110000000000111 g"
b1110 W
b1110 L"
b1110 h"
b1111 H
b1111 c"
b1111 }"
b1 !
13
#150000
03
#155000
08
05
1<
b0 u
b0 '"
b0 0"
b1000 G
b1000 {"
b1 [
b1 J"
b1 ]"
1E
b0 x
b0 )"
b0 F"
06
0T
0w
b0 {
b0 #"
b0 t
b0 1"
b1000000001 U
b1000000001 d"
b1000000001 j"
b111 i"
b0 _
b0 `
b0 M"
b0 p"
b0 a
b0 o"
b0 Y
b0 C"
b0 I"
b0 Z"
b0 ^
b0 ("
b0 C
b1 *"
b1000 =
b1000 ["
b111 H
b111 c"
b111 }"
b0 X
b0 g"
b0 W
b0 L"
b0 h"
b0 b
b0 ="
b0 X"
b0 k
b0 R"
b0 f
b0 U"
b0 h
b0 3"
b0 S"
b0 n
b0 %"
b0 Q"
b0 N
b0 9"
b0 ;"
b0 t"
b1 I
b1 +"
b1 :"
b1 S
b1 7"
b1 s"
b1101 O
b1101 8"
0K
b101 @
b101 <"
b101 \"
b101 y"
b1000 B
b1000 x"
13
#160000
03
#165000
b1 z
b1 $"
1E
0<
b10 u
b10 '"
b10 0"
b1 y
b1 s
b1 {
b1 #"
b1 t
b1 1"
b1 =
b1 ["
b0 *"
b1 _
b1 `
b1 M"
b1 p"
b1 a
b1 o"
b1 Y
b1 C"
b1 I"
b1 Z"
b10 ]
b10 G"
b1001 G
b1001 {"
b1001000101000001 U
b1001000101000001 d"
b1001000101000001 j"
b1000 i"
b0 @
b0 <"
b0 \"
b0 y"
b1 B
b1 x"
0>
b0 I
b0 +"
b0 :"
b0 S
b0 7"
b0 s"
b0 O
b0 8"
b1 e
b1 V"
b1 f
b1 U"
1d
b1000000001 X
b1000000001 g"
b111 W
b111 L"
b111 h"
b1000 H
b1000 c"
b1000 }"
b1000 ,
13
#170000
03
#175000
17
b10 x
b10 )"
b10 F"
1w
1J
0E
b1010 G
b1010 {"
b10001000110 U
b10001000110 d"
b10001000110 j"
b1001 i"
b101000001 _
b100 Z
b100 B"
b100 H"
b100 Y"
b1 ]
b1 G"
b1001 ^
b1001 ("
b1 C
b10 *"
b0 =
b0 ["
b1001 H
b1001 c"
b1001 }"
b1001000101000001 X
b1001000101000001 g"
b1000 W
b1000 L"
b1000 h"
b10 g
b10 2"
b10 D"
b10 T"
b1 b
b1 ="
b1 X"
b1 k
b1 R"
b111 h
b111 3"
b111 S"
b1 I
b1 +"
b1 :"
b10 S
b10 7"
b10 s"
1K
b0 B
b0 x"
13
#180000
03
#185000
07
1E
b0 x
b0 )"
b0 F"
0w
0J
b10 =
b10 ["
b1 u
b1 '"
b1 0"
b1000110 _
b110 `
b110 M"
b110 p"
b110 a
b110 o"
b110 Y
b110 C"
b110 I"
b110 Z"
b100 ]
b100 G"
b0 ^
b0 ("
b1011 G
b1011 {"
b10011 U
b10011 d"
b10011 j"
b1010 i"
b10 B
b10 x"
1>
b10 N
b10 9"
b10 ;"
b10 t"
b111 O
b111 8"
1r
b1 g
b1 2"
b1 D"
b1 T"
b100 c
b100 >"
b100 W"
b1000 h
b1000 3"
b1000 S"
1m
b10 n
b10 %"
b10 Q"
1i
0d
b10001000110 X
b10001000110 g"
b1001 W
b1001 L"
b1001 h"
b1010 H
b1010 c"
b1010 }"
13
#190000
03
#195000
b0 [
b0 J"
b0 ]"
b1100 G
b1100 {"
b100100011 U
b100100011 d"
b100100011 j"
b1011 i"
b10011 _
b10011 `
b10011 M"
b10011 p"
b10011 a
b10011 o"
b11 Y
b11 C"
b11 I"
b11 Z"
b1 Z
b1 B"
b1 H"
b1 Y"
b0 ]
b0 G"
b110 C
b10 u
b10 '"
b10 0"
b1 *"
b10 !
b1011 H
b1011 c"
b1011 }"
b10011 X
b10011 g"
b1010 W
b1010 L"
b1010 h"
0r
b100 g
b100 2"
b100 D"
b100 T"
b110 b
b110 ="
b110 X"
b110 k
b110 R"
b1001 h
b1001 3"
b1001 S"
0m
b0 n
b0 %"
b0 Q"
0i
1d
b1 N
b1 9"
b1 ;"
b1 t"
b1 S
b1 7"
b1 s"
b1000 O
b1000 8"
1P
0K
b10 @
b10 <"
b10 \"
b10 y"
13
#200000
03
#205000
b1 u
b1 '"
b1 0"
b0 z
b0 $"
b0 y
b0 s
b10 \
b10 K"
b10 ^"
b1 =
b1 ["
b10 *"
b10011 C
b100100011 _
b1111111111100011 `
b1111111111100011 M"
b1111111111100011 p"
b100011 a
b100011 o"
b10 Z
b10 B"
b10 H"
b10 Y"
b1 ]
b1 G"
b1101 G
b1101 {"
b1010101010110 U
b1010101010110 d"
b1010101010110 j"
b1100 i"
b1 @
b1 <"
b1 \"
b1 y"
b1 B
b1 x"
0>
b100 N
b100 9"
b100 ;"
b100 t"
b10 S
b10 7"
b10 s"
b1001 O
b1001 8"
0P
1K
b0 g
b0 2"
b0 D"
b0 T"
b11 b
b11 ="
b11 X"
b1 c
b1 >"
b1 W"
b10011 k
b10011 R"
b0 e
b0 V"
b1010 h
b1010 3"
b1010 S"
b100100011 X
b100100011 g"
b1011 W
b1011 L"
b1011 h"
b1100 H
b1100 c"
b1100 }"
b10 )
13
#210000
03
