tb_cpu.vcd
$date
	Sun May 25 19:29:05 2025
$end
$version
	Icarus Verilog
$end
$timescale
	1ps
$end
$scope module tb_cpu $end
$var wire 16 ! r0 [15:0] $end
$var wire 16 " r1 [15:0] $end
$var wire 16 # r10 [15:0] $end
$var wire 16 $ r11 [15:0] $end
$var wire 16 % r12 [15:0] $end
$var wire 16 & r13 [15:0] $end
$var wire 16 ' r14 [15:0] $end
$var wire 16 ( r15 [15:0] $end
$var wire 16 ) r2 [15:0] $end
$var wire 16 * r3 [15:0] $end
$var wire 16 + r4 [15:0] $end
$var wire 16 , r5 [15:0] $end
$var wire 16 - r6 [15:0] $end
$var wire 16 . r7 [15:0] $end
$var wire 16 / r8 [15:0] $end
$var wire 16 0 r9 [15:0] $end
$var parameter 32 1 DATA_WIDTH $end
$var parameter 32 2 WIDTH $end
$var reg 1 3 clk $end
$var reg 1 4 reset $end
$scope module DUT $end
$var wire 1 3 clk $end
$var wire 1 5 id_ex_flush $end
$var wire 4 6 id_jr_reg [3:0] $end
$var wire 1 7 if_id_flush $end
$var wire 1 8 is_str_reg_indirect $end
$var wire 16 9 jr_target [15:0] $end
$var wire 16 : mem_read_data [15:0] $end
$var wire 16 ; mem_write_data [15:0] $end
$var wire 1 < real_id_ex_flush $end
$var wire 1 = real_if_id_stall $end
$var wire 1 > real_if_id_write $end
$var wire 1 ? real_pc_write $end
$var wire 1 4 reset $end
$var wire 1 @ zero_flag $end
$var wire 16 A wb_write_data [15:0] $end
$var wire 1 B wb_reg_write $end
$var wire 16 C wb_read_data [15:0] $end
$var wire 4 D wb_rd [3:0] $end
$var wire 1 E wb_mem_to_reg $end
$var wire 16 F wb_jal_link_value [15:0] $end
$var wire 1 G wb_is_jal $end
$var wire 16 H wb_alu_result [15:0] $end
$var wire 16 I str_addr [15:0] $end
$var wire 1 J stall $end
$var wire 1 K reg_write $end
$var wire 4 L read_reg1 [3:0] $end
$var wire 1 M pc_write $end
$var wire 16 N pc_next [15:0] $end
$var wire 16 O pc_current [15:0] $end
$var wire 1 P mem_write $end
$var wire 1 Q mem_reg_write $end
$var wire 1 R mem_read $end
$var wire 4 S mem_rd [3:0] $end
$var wire 16 T mem_pc [15:0] $end
$var wire 1 U mem_mem_write $end
$var wire 1 V mem_mem_read $end
$var wire 16 W mem_jal_link_value [15:0] $end
$var wire 1 X mem_is_jal $end
$var wire 1 Y mem_branch $end
$var wire 16 Z mem_alu_result [15:0] $end
$var wire 1 [ ldpc $end
$var wire 1 \ is_jr $end
$var wire 1 ] is_jal $end
$var wire 16 ^ instr [15:0] $end
$var wire 1 _ if_id_write $end
$var wire 16 ` if_id_pc [15:0] $end
$var wire 16 a if_id_instr [15:0] $end
$var wire 4 b id_rt [3:0] $end
$var wire 4 c id_rs [3:0] $end
$var wire 16 d id_reg_data2 [15:0] $end
$var wire 16 e id_reg_data1 [15:0] $end
$var wire 4 f id_rd [3:0] $end
$var wire 4 g id_opcode [3:0] $end
$var wire 16 h id_jump_target [15:0] $end
$var wire 16 i id_jr_target [15:0] $end
$var wire 16 j id_jal_link_value [15:0] $end
$var wire 1 k id_is_jal $end
$var wire 16 l id_imm_ext [15:0] $end
$var wire 6 m id_imm6 [5:0] $end
$var wire 4 n id_ex_rt [3:0] $end
$var wire 4 o id_ex_rs [3:0] $end
$var wire 1 p id_ex_reg_write $end
$var wire 16 q id_ex_reg_data2 [15:0] $end
$var wire 16 r id_ex_reg_data1 [15:0] $end
$var wire 4 s id_ex_rd [3:0] $end
$var wire 16 t id_ex_pc [15:0] $end
$var wire 1 u id_ex_mem_write $end
$var wire 1 v id_ex_mem_read $end
$var wire 16 w id_ex_imm_ext [15:0] $end
$var wire 1 x id_ex_branch $end
$var wire 1 y id_ex_alu_src $end
$var wire 3 z id_ex_alu_op [2:0] $end
$var wire 1 { halt $end
$var wire 2 | forwardB [1:0] $end
$var wire 2 } forwardA [1:0] $end
$var wire 16 ~ ex_jal_link_value [15:0] $end
$var wire 1 !" ex_is_str_reg_indirect $end
$var wire 1 "" ex_is_jal $end
$var wire 16 #" ex_forw_B [15:0] $end
$var wire 16 $" ex_forw_A [15:0] $end
$var wire 16 %" ex_alu_result [15:0] $end
$var wire 1 &" branch $end
$var wire 1 '" alu_src $end
$var wire 3 (" alu_op [2:0] $end
$var wire 16 )" alu_in2_reg [15:0] $end
$var wire 16 *" alu_in2 [15:0] $end
$var wire 16 +" alu_in1 [15:0] $end
$var parameter 32 ," DATA_WIDTH $end
$var parameter 32 -" DMEM_DEPTH $end
$var parameter 32 ." IMEM_DEPTH $end
$var parameter 32 /" REGADDR_W $end
$var parameter 32 0" WIDTH $end
$scope module ALU_I $end
$var wire 16 1" a [15:0] $end
$var wire 16 2" b [15:0] $end
$var wire 1 @ zero $end
$var wire 3 3" alu_op [2:0] $end
$var parameter 32 4" DATA_WIDTH $end
$var reg 16 5" result [15:0] $end
$upscope $end
$scope module CONTROL $end
$var wire 1 6" clk $end
$var wire 4 7" opcode [3:0] $end
$var wire 1 8" reset $end
$var wire 1 @ zero $end
$var reg 3 9" alu_op [2:0] $end
$var reg 1 '" alu_src $end
$var reg 1 &" branch $end
$var reg 1 { halt $end
$var reg 1 [ ldpc $end
$var reg 1 R mem_read $end
$var reg 1 P mem_write $end
$var reg 3 :" next_state [2:0] $end
$var reg 1 K reg_write $end
$var reg 3 ;" state [2:0] $end
$upscope $end
$scope module DMEM $end
$var wire 8 <" addr [7:0] $end
$var wire 1 3 clk $end
$var wire 16 =" read_data [15:0] $end
$var wire 16 >" write_data [15:0] $end
$var wire 1 U mem_write $end
$var wire 1 V mem_read $end
$var parameter 32 ?" ADDR_WIDTH $end
$var parameter 32 @" DATA_WIDTH $end
$var parameter 136 A" MEMFILE $end
$upscope $end
$scope module EX_MEM $end
$var wire 1 3 clk $end
$var wire 16 B" ex_alu_result [15:0] $end
$var wire 16 C" ex_reg_data2 [15:0] $end
$var wire 1 4 reset $end
$var wire 1 p ex_reg_write $end
$var wire 4 D" ex_rd [3:0] $end
$var wire 16 E" ex_pc [15:0] $end
$var wire 1 u ex_mem_write $end
$var wire 1 v ex_mem_read $end
$var wire 16 F" ex_jal_link_value [15:0] $end
$var wire 1 "" ex_is_jal $end
$var wire 1 x ex_branch $end
$var parameter 32 G" DATA_WIDTH $end
$var parameter 32 H" PC_WIDTH $end
$var parameter 32 I" REGADDR_WIDTH $end
$var reg 16 J" mem_alu_result [15:0] $end
$var reg 1 Y mem_branch $end
$var reg 1 X mem_is_jal $end
$var reg 16 K" mem_jal_link_value [15:0] $end
$var reg 1 V mem_mem_read $end
$var reg 1 U mem_mem_write $end
$var reg 16 L" mem_pc [15:0] $end
$var reg 4 M" mem_rd [3:0] $end
$var reg 1 Q mem_reg_write $end
$var reg 16 N" mem_write_data [15:0] $end
$upscope $end
$scope module FORWARD_UNIT $end
$var wire 4 O" ex_mem_rd [3:0] $end
$var wire 1 Q ex_mem_reg_write $end
$var wire 1 B wb_reg_write $end
$var wire 4 P" wb_rd [3:0] $end
$var wire 4 Q" id_ex_rt [3:0] $end
$var wire 4 R" id_ex_rs [3:0] $end
$var parameter 32 S" REGADDR_WIDTH $end
$var reg 2 T" forwardA [1:0] $end
$var reg 2 U" forwardB [1:0] $end
$upscope $end
$scope module HAZARD_UNIT $end
$var wire 1 \ id_is_jr $end
$var wire 4 V" if_id_rs [3:0] $end
$var wire 4 W" if_id_rt [3:0] $end
$var wire 4 X" id_ex_rd [3:0] $end
$var wire 1 v id_ex_mem_read $end
$var wire 4 Y" ex_rd [3:0] $end
$var wire 1 "" ex_is_jal $end
$var reg 1 _ if_id_write $end
$var reg 1 M pc_write $end
$var reg 1 J stall $end
$upscope $end
$scope module ID_EX $end
$var wire 1 3 clk $end
$var wire 1 < flush $end
$var wire 3 Z" id_alu_op [2:0] $end
$var wire 1 '" id_alu_src $end
$var wire 1 &" id_branch $end
$var wire 1 k id_is_jal $end
$var wire 1 8 id_is_str_reg_indirect $end
$var wire 16 [" id_jal_link_value [15:0] $end
$var wire 1 R id_mem_read $end
$var wire 1 P id_mem_write $end
$var wire 4 \" id_rd [3:0] $end
$var wire 1 K id_reg_write $end
$var wire 4 ]" id_rs [3:0] $end
$var wire 4 ^" id_rt [3:0] $end
$var wire 1 4 reset $end
$var wire 16 _" id_read_data2 [15:0] $end
$var wire 16 `" id_read_data1 [15:0] $end
$var wire 16 a" id_pc [15:0] $end
$var wire 16 b" id_imm [15:0] $end
$var parameter 32 c" DATA_WIDTH $end
$var parameter 32 d" PC_WIDTH $end
$var parameter 32 e" REGADDR_WIDTH $end
$var reg 3 f" ex_alu_op [2:0] $end
$var reg 1 y ex_alu_src $end
$var reg 1 x ex_branch $end
$var reg 16 g" ex_imm_ext [15:0] $end
$var reg 1 "" ex_is_jal $end
$var reg 1 !" ex_is_str_reg_indirect $end
$var reg 16 h" ex_jal_link_value [15:0] $end
$var reg 1 v ex_mem_read $end
$var reg 1 u ex_mem_write $end
$var reg 16 i" ex_pc [15:0] $end
$var reg 4 j" ex_rd [3:0] $end
$var reg 16 k" ex_reg_data1 [15:0] $end
$var reg 16 l" ex_reg_data2 [15:0] $end
$var reg 1 p ex_reg_write $end
$var reg 4 m" ex_rs [3:0] $end
$var reg 4 n" ex_rt [3:0] $end
$upscope $end
$scope module ID_REGFILE $end
$var wire 1 3 clk $end
$var wire 4 o" read_reg1 [3:0] $end
$var wire 4 p" read_reg2 [3:0] $end
$var wire 1 4 reset $end
$var wire 16 q" write_data [15:0] $end
$var wire 4 r" write_reg [3:0] $end
$var wire 1 B reg_write $end
$var wire 16 s" read_data2 [15:0] $end
$var wire 16 t" read_data1 [15:0] $end
$var parameter 32 u" DATA_WIDTH $end
$var parameter 36 v" NUM_REGS $end
$var parameter 32 w" REGADDR_WIDTH $end
$scope begin $unm_blk_66 $end
$var integer 32 x" i [31:0] $end
$upscope $end
$upscope $end
$scope module IF_ID $end
$var wire 1 3 clk $end
$var wire 1 7 flush $end
$var wire 1 4 reset $end
$var wire 1 = stall $end
$var wire 16 y" if_pc [15:0] $end
$var wire 16 z" if_instr [15:0] $end
$var parameter 32 {" INSTR_WIDTH $end
$var parameter 32 |" PC_WIDTH $end
$var reg 16 }" id_instr [15:0] $end
$var reg 16 ~" id_pc [15:0] $end
$upscope $end
$scope module IMEM $end
$var wire 8 !# addr [7:0] $end
$var wire 16 "# instr [15:0] $end
$var parameter 32 ## ADDR_WIDTH $end
$var parameter 32 $# DATA_WIDTH $end
$var parameter 144 %# MEMFILE $end
$scope begin $unm_blk_4 $end
$var integer 32 &# i [31:0] $end
$upscope $end
$upscope $end
$scope module IMM_GEN $end
$var wire 6 '# imm_in [5:0] $end
$var wire 16 (# imm_out [15:0] $end
$var parameter 32 )# IN_WIDTH $end
$var parameter 32 *# OUT_WIDTH $end
$upscope $end
$scope module MEM_WB $end
$var wire 1 3 clk $end
$var wire 16 +# mem_alu_result [15:0] $end
$var wire 1 X mem_is_jal $end
$var wire 16 ,# mem_jal_link_value [15:0] $end
$var wire 1 V mem_mem_read $end
$var wire 4 -# mem_rd [3:0] $end
$var wire 16 .# mem_read_data [15:0] $end
$var wire 1 Q mem_reg_write $end
$var wire 1 4 reset $end
$var parameter 32 /# DATA_WIDTH $end
$var parameter 32 0# REGADDR_WIDTH $end
$var reg 16 1# wb_alu_result [15:0] $end
$var reg 1 G wb_is_jal $end
$var reg 16 2# wb_jal_link_value [15:0] $end
$var reg 1 E wb_mem_to_reg $end
$var reg 4 3# wb_rd [3:0] $end
$var reg 16 4# wb_read_data [15:0] $end
$var reg 1 B wb_reg_write $end
$upscope $end
$scope module PC $end
$var wire 1 3 clk $end
$var wire 16 5# pc_in [15:0] $end
$var wire 1 ? pc_write $end
$var wire 1 4 reset $end
$var parameter 32 6# WIDTH $end
$var reg 16 7# pc_out [15:0] $end
$upscope $end
$upscope $end
$upscope $end
$enddefinitions $end
$comment Show the parameter values. $end
$dumpall
b10000 6#
b100 0#
b10000 /#
b10000 *#
b110 )#
b10010010100010001001101001011110110100101101110011100110111010001110010010111110110100101101110011010010111010000101110011010000110010101111000 %#
b10000 $#
b1000 ##
b10000 |"
b10000 {"
b100 w"
b10000 v"
b10000 u"
b100 e"
b10000 d"
b10000 c"
b100 S"
b100 I"
b10000 H"
b10000 G"
b100100101000100010011010010111101100100011000010111010001100001010111110110100101101110011010010111010000101110011010000110010101111000 A"
b10000 @"
b1000 ?"
b10000 4"
b10000 0"
b100 /"
b100000000 ."
b100000000 -"
b10000 ,"
b10000 2
b10000 1
$end
#0
$dumpvars
b0 7#
b1 5#
b0 4#
b0 3#
b0 2#
b0 1#
bz .#
b0 -#
b0 ,#
b0 +#
b0 (#
b0 '#
b100000000 &#
b10000000000000 "#
b0 !#
b0 ~"
b0 }"
b10000000000000 z"
b0 y"
b10000 x"
b0 t"
b0 s"
b0 r"
b0 q"
b0 p"
b0 o"
b0 n"
b0 m"
b0 l"
b0 k"
b0 j"
b0 i"
b0 h"
b0 g"
b0 f"
b0 b"
b0 a"
b0 `"
b0 _"
b0 ^"
b0 ]"
b0 \"
b1 ["
b0 Z"
b0 Y"
b0 X"
b0 W"
b0 V"
b0 U"
b0 T"
b0 R"
b0 Q"
b0 P"
b0 O"
b0 N"
b0 M"
b0 L"
b0 K"
b0 J"
b0 F"
b0 E"
b0 D"
b0 C"
b0 B"
b0 >"
bz ="
b0 <"
bx ;"
bx :"
b0 9"
z8"
b0 7"
z6"
b0 5"
b0 3"
b0 2"
b0 1"
b0 +"
b0 *"
b0 )"
b0 ("
0'"
0&"
b0 %"
b0 $"
b0 #"
0""
x!"
b0 ~
b0 }
b0 |
0{
b0 z
0y
0x
b0 w
0v
0u
b0 t
b0 s
b0 r
b0 q
0p
b0 o
b0 n
b0 m
b0 l
0k
b1 j
b0 i
b0 h
b0 g
b0 f
b0 e
b0 d
b0 c
b0 b
b0 a
b0 `
1_
b10000000000000 ^
0]
0\
0[
b0 Z
0Y
0X
b0 W
0V
0U
b0 T
b0 S
0R
0Q
0P
b0 O
b1 N
1M
b0 L
1K
0J
b0 I
b0 H
0G
b0 F
0E
b0 D
b0 C
0B
b0 A
1@
1?
1>
0=
0<
b0 ;
bz :
b0 9
08
07
b0 6
05
14
03
b0 0
b0 /
b0 .
b0 -
b0 ,
b0 +
b0 *
b0 )
b0 (
b0 '
b0 &
b0 %
b0 $
b0 #
b0 "
b0 !
$end
#1000
04
#5000
b10 ("
b10 9"
b10 Z"
1'"
1K
b10 g
b10 7"
b10 N
b10 5#
b10000100000001 ^
b10000100000001 z"
b10000100000001 "#
b1 !#
bz C
bz 4#
b1 ~
b1 F"
b1 h"
0!"
1p
b10000000000000 a
b10000000000000 }"
b1 O
b1 y"
b1 7#
13
#10000
03
#15000
b11 N
b11 5#
b10001000000000 ^
b10001000000000 z"
b10001000000000 "#
b10 !#
b100000001 h
b1 l
b1 b"
b1 (#
b1 m
b1 '#
b1 b
b1 W"
b1 ^"
b1 p"
b1 6
b1 f
b1 \"
b10 O
b10 y"
b10 7#
b10000100000001 a
b10000100000001 }"
b10 j
b10 ["
b1 `
b1 a"
b1 ~"
1y
b10 z
b10 3"
b10 f"
b1 W
b1 K"
b1 ,#
1Q
13
#20000
03
#25000
b10 ("
b10 9"
b10 Z"
1'"
1K
0@
b1 %"
b1 5"
b1 B"
b1 *"
b1 2"
b1 I
b0 h
b0 l
b0 b"
b0 (#
b0 m
b0 '#
b0 b
b0 W"
b0 ^"
b0 p"
b10 6
b10 f
b10 \"
b100 N
b100 5#
b10001100000000 ^
b10001100000000 z"
b10001100000000 "#
b11 !#
b1 F
b1 2#
1B
b10 ~
b10 F"
b10 h"
b1 s
b1 D"
b1 X"
b1 Y"
b1 j"
b1 n
b1 Q"
b1 n"
b1 w
b1 g"
b1 t
b1 E"
b1 i"
b10001000000000 a
b10001000000000 }"
b11 j
b11 ["
b10 `
b10 a"
b10 ~"
b11 O
b11 y"
b11 7#
13
#30000
03
#35000
b10 ("
b10 9"
b10 Z"
1'"
1K
1@
b0 %"
b0 5"
b0 B"
b0 *"
b0 2"
b101 N
b101 5#
b10010000000001 ^
b10010000000001 z"
b10010000000001 "#
b100 !#
b100000000 h
b11 6
b11 f
b11 \"
b0 I
b100 O
b100 y"
b100 7#
b10001100000000 a
b10001100000000 }"
b100 j
b100 ["
b11 `
b11 a"
b11 ~"
b11 ~
b11 F"
b11 h"
b10 s
b10 D"
b10 X"
b10 Y"
b10 j"
b0 n
b0 Q"
b0 n"
b0 w
b0 g"
b10 t
b10 E"
b10 i"
b10 W
b10 K"
b10 ,#
b1 S
b1 M"
b1 O"
b1 -#
b0x ;
b0x >"
b1 Z
b1 J"
b1 +#
b1 T
b1 L"
13
#40000
03
#45000
b1 d
b1 _"
b1 s"
b1 A
b1 q"
b1 h
b1 l
b1 b"
b1 (#
b1 m
b1 '#
b1 b
b1 W"
b1 ^"
b1 p"
b100 6
b100 f
b100 \"
b110 N
b110 5#
b10010100011001 ^
b10010100011001 z"
b10010100011001 "#
b101 !#
b1 D
b1 P"
b1 r"
b1 3#
b10 F
b10 2#
b1 H
b1 1#
b11 W
b11 K"
b11 ,#
b10 S
b10 M"
b10 O"
b10 -#
b0 ;
b0 >"
b0 Z
b0 J"
b0 +#
b10 T
b10 L"
b100 ~
b100 F"
b100 h"
b11 s
b11 D"
b11 X"
b11 Y"
b11 j"
b11 t
b11 E"
b11 i"
b10010000000001 a
b10010000000001 }"
b101 j
b101 ["
b100 `
b100 a"
b100 ~"
b101 O
b101 y"
b101 7#
13
#50000
03
#55000
b1 9
b1 i
b1 <"
b10 ("
b10 9"
b10 Z"
1'"
1K
b1 e
b1 `"
b1 t"
0@
b1 %"
b1 5"
b1 B"
b1 L
b1 o"
b1 *"
b1 2"
b1 )"
b1 #"
b1 C"
b0 d
b0 _"
b0 s"
b0 A
b0 q"
b111 N
b111 5#
b10011000000001 ^
b10011000000001 z"
b10011000000001 "#
b110 !#
b100011001 h
b11001 l
b11001 b"
b11001 (#
b11001 m
b11001 '#
b1001 b
b1001 W"
b1001 ^"
b1001 p"
b1 c
b1 V"
b1 ]"
b101 6
b101 f
b101 \"
b1 I
b1 "
b110 O
b110 y"
b110 7#
b10010100011001 a
b10010100011001 }"
b110 j
b110 ["
b101 `
b101 a"
b101 ~"
b101 ~
b101 F"
b101 h"
b100 s
b100 D"
b100 X"
b100 Y"
b100 j"
b1 n
b1 Q"
b1 n"
b1 w
b1 g"
b1 q
b1 l"
b100 t
b100 E"
b100 i"
b100 W
b100 K"
b100 ,#
b11 S
b11 M"
b11 O"
b11 -#
b11 T
b11 L"
b10 D
b10 P"
b10 r"
b10 3#
b11 F
b11 2#
b0 H
b0 1#
13
#60000
03
#65000
b0 9
b0 i
b0 <"
b11001 %"
b11001 5"
b11001 B"
b0 e
b0 `"
b0 t"
b11001 *"
b11001 2"
b0 )"
b0 #"
b0 C"
b1 +"
b1 1"
b1 $"
b1 d
b1 _"
b1 s"
b0 L
b0 o"
b11001 I
b1 h
b1 l
b1 b"
b1 (#
b1 m
b1 '#
b1 b
b1 W"
b1 ^"
b1 p"
b0 c
b0 V"
b0 ]"
b110 6
b110 f
b110 \"
b1000 N
b1000 5#
b1001000001000001 ^
b1001000001000001 z"
b1001000001000001 "#
b111 !#
b11 D
b11 P"
b11 r"
b11 3#
b100 F
b100 2#
b101 W
b101 K"
b101 ,#
b100 S
b100 M"
b100 O"
b100 -#
b1 N"
b1 ;
b1 >"
b1 Z
b1 J"
b1 +#
b100 T
b100 L"
b110 ~
b110 F"
b110 h"
b101 s
b101 D"
b101 X"
b101 Y"
b101 j"
b1001 n
b1001 Q"
b1001 n"
b1 o
b1 R"
b1 m"
b11001 w
b11001 g"
b0 q
b0 l"
b1 r
b1 k"
b101 t
b101 E"
b101 i"
b10011000000001 a
b10011000000001 }"
b111 j
b111 ["
b110 `
b110 a"
b110 ~"
b111 O
b111 y"
b111 7#
13
#70000
03
#75000
b1 9
b1 i
b1 <"
b1 e
b1 `"
b1 t"
b1 %"
b1 5"
b1 B"
b100 L
b100 o"
18
1P
b10 ("
b10 9"
b10 Z"
1'"
0K
b1 *"
b1 2"
b1 )"
b1 #"
b1 C"
b0 +"
b0 1"
b0 $"
b1 A
b1 q"
b1001 N
b1001 5#
b1000000001 ^
b1000000001 z"
b1000000001 "#
b1000 !#
b1000001 h
b100 c
b100 V"
b100 ]"
b0 6
b0 f
b0 \"
b1001 g
b1001 7"
b1 I
b1000 O
b1000 y"
b1000 7#
b1001000001000001 a
b1001000001000001 }"
b1000 j
b1000 ["
b111 `
b111 a"
b111 ~"
b111 ~
b111 F"
b111 h"
b110 s
b110 D"
b110 X"
b110 Y"
b110 j"
b1 n
b1 Q"
b1 n"
b0 o
b0 R"
b0 m"
b1 w
b1 g"
b1 q
b1 l"
b0 r
b0 k"
b110 t
b110 E"
b110 i"
b110 W
b110 K"
b110 ,#
b101 S
b101 M"
b101 O"
b101 -#
b0 N"
b0xx00x ;
b0xx00x >"
b11001 Z
b11001 J"
b11001 +#
b101 T
b101 L"
b100 D
b100 P"
b100 r"
b100 3#
b101 F
b101 2#
b1 H
b1 1#
13
#80000
03
#85000
b0 9
b0 i
b0 <"
b0 e
b0 `"
b0 t"
b11001 A
b11001 q"
b1 +"
b1 1"
b1 $"
b0 L
b0 o"
08
1K
b0 ("
b0 9"
b0 Z"
0'"
0P
b1 I
b1 h
b0 c
b0 V"
b0 ]"
b10 6
b10 f
b10 \"
b0 g
b0 7"
b1010 N
b1010 5#
b10001000110 ^
b10001000110 z"
b10001000110 "#
b1001 !#
b101 D
b101 P"
b101 r"
b101 3#
b110 F
b110 2#
b11001 H
b11001 1#
b111 W
b111 K"
b111 ,#
b110 S
b110 M"
b110 O"
b110 -#
b1 N"
b1 ;
b1 >"
b1 Z
b1 J"
b1 +#
b110 T
b110 L"
b1000 ~
b1000 F"
b1000 h"
1!"
b0 s
b0 D"
b0 X"
b0 Y"
b0 j"
b100 o
b100 R"
b100 m"
b1 r
b1 k"
b111 t
b111 E"
b111 i"
1u
0p
b1000000001 a
b1000000001 }"
b1001 j
b1001 ["
b1000 `
b1000 a"
b1000 ~"
b1001 O
b1001 y"
b1001 7#
b1 +
13
#90000
03
#95000
b1 9
b1 i
b1 <"
b1 e
b1 `"
b1 t"
b1 d
b1 _"
b1 s"
b100 L
b100 o"
b0 +"
b0 1"
b0 $"
b1 A
b1 q"
b1011 N
b1011 5#
b1011000000000001 ^
b1011000000000001 z"
b1011000000000001 "#
b1010 !#
b1000110 h
b110 l
b110 b"
b110 (#
b110 m
b110 '#
b110 b
b110 W"
b110 ^"
b110 p"
b100 c
b100 V"
b100 ]"
b100 6
b100 f
b100 \"
b1 %"
b1 5"
b1 B"
b11001 ,
b1010 O
b1010 y"
b1010 7#
b10001000110 a
b10001000110 }"
b1010 j
b1010 ["
b1001 `
b1001 a"
b1001 ~"
b1001 ~
b1001 F"
b1001 h"
0!"
b10 s
b10 D"
b10 X"
b10 Y"
b10 j"
b0 o
b0 R"
b0 m"
b0 r
b0 k"
b1000 t
b1000 E"
b1000 i"
0y
b0 z
b0 3"
b0 f"
0u
1p
b1000 W
b1000 K"
b1000 ,#
b0 S
b0 M"
b0 O"
b0 -#
b111 T
b111 L"
1U
0Q
b110 D
b110 P"
b110 r"
b110 3#
b111 F
b111 2#
b1 H
b1 1#
13
#100000
03
#105000
b0 9
b0 i
b0 <"
b10 %"
b10 5"
b10 B"
b0 e
b0 `"
b0 t"
b1 +"
b1 1"
b1 $"
b0 L
b0 o"
b10 ("
b10 9"
b10 Z"
1K
b110 I
b1 h
b1 l
b1 b"
b1 (#
b1 m
b1 '#
b1 b
b1 W"
b1 ^"
b1 p"
b0 c
b0 V"
b0 ]"
b0 6
b0 f
b0 \"
b1011 g
b1011 7"
b1100 N
b1100 5#
b1011000100000010 ^
b1011000100000010 z"
b1011000100000010 "#
b1011 !#
b0 D
b0 P"
b0 r"
b0 3#
b1000 F
b1000 2#
0B
b1001 W
b1001 K"
b1001 ,#
b10 S
b10 M"
b10 O"
b10 -#
b1000 T
b1000 L"
0U
1Q
b1010 ~
b1010 F"
b1010 h"
b100 s
b100 D"
b100 X"
b100 Y"
b100 j"
b110 n
b110 Q"
b110 n"
b100 o
b100 R"
b100 m"
b110 w
b110 g"
b1 r
b1 k"
b1001 t
b1001 E"
b1001 i"
b1011000000000001 a
b1011000000000001 }"
b1011 j
b1011 ["
b1010 `
b1010 a"
b1010 ~"
b1011 O
b1011 y"
b1011 7#
b1 -
13
#110000
03
#115000
b1 d
b1 _"
b1 s"
b0 +"
b0 1"
b0 $"
b1101 N
b1101 5#
b1010101010110 ^
b1010101010110 z"
b1010101010110 "#
b1100 !#
b100000010 h
b10 l
b10 b"
b10 (#
b10 m
b10 '#
b10 b
b10 W"
b10 ^"
b10 p"
b1 6
b1 f
b1 \"
b1 I
b1 %"
b1 5"
b1 B"
b1100 O
b1100 y"
b1100 7#
b1011000100000010 a
b1011000100000010 }"
b1100 j
b1100 ["
b1011 `
b1011 a"
b1011 ~"
b1011 ~
b1011 F"
b1011 h"
b0 s
b0 D"
b0 X"
b0 Y"
b0 j"
b1 n
b1 Q"
b1 n"
b0 o
b0 R"
b0 m"
b1 w
b1 g"
b0 r
b0 k"
b1010 t
b1010 E"
b1010 i"
b10 z
b10 3"
b10 f"
b1010 W
b1010 K"
b1010 ,#
b100 S
b100 M"
b100 O"
b100 -#
b0xx ;
b0xx >"
b10 Z
b10 J"
b10 +#
b1001 T
b1001 L"
b10 D
b10 P"
b10 r"
b10 3#
b1001 F
b1001 2#
1B
13
#120000
03
#125000
b11001 9
b11001 i
b11001 <"
b11001 e
b11001 `"
b11001 t"
b10 A
b10 q"
b101 L
b101 o"
b11 ("
b11 9"
b11 Z"
1K
b10 I
b101010110 h
b10110 l
b10110 b"
b10110 (#
b10110 m
b10110 '#
b110 b
b110 W"
b110 ^"
b110 p"
b101 c
b101 V"
b101 ]"
b101 6
b101 f
b101 \"
b1 g
b1 7"
b1110 N
b1110 5#
b1110000000000111 ^
b1110000000000111 z"
b1110000000000111 "#
b1101 !#
b100 D
b100 P"
b100 r"
b100 3#
b1010 F
b1010 2#
b10 H
b10 1#
b1011 W
b1011 K"
b1011 ,#
b0 S
b0 M"
b0 O"
b0 -#
b1 ;
b1 >"
b1 Z
b1 J"
b1 +#
b1010 T
b1010 L"
b1100 ~
b1100 F"
b1100 h"
b1 s
b1 D"
b1 X"
b1 Y"
b1 j"
b10 n
b10 Q"
b10 n"
b10 w
b10 g"
b1011 t
b1011 E"
b1011 i"
b1010101010110 a
b1010101010110 }"
b1101 j
b1101 ["
b1100 `
b1100 a"
b1100 ~"
b1101 O
b1101 y"
b1101 7#
b1 )
13
#130000
03
#135000
b1 9
b1 i
b1 <"
b1 e
b1 `"
b1 t"
b0 d
b0 _"
b0 s"
b0 L
b0 o"
17
1[
1&"
b11 ("
b11 9"
b11 Z"
0K
b11001 +"
b11001 1"
b11001 $"
b1 A
b1 q"
b111 N
b111 5#
b111000000000000 ^
b111000000000000 z"
b111000000000000 "#
b1110 !#
b111 h
b111 l
b111 b"
b111 (#
b111 m
b111 '#
b111 b
b111 W"
b111 ^"
b111 p"
b0 c
b0 V"
b0 ]"
b0 6
b0 f
b0 \"
b1110 g
b1110 7"
b10110 I
b11000 %"
b11000 5"
b11000 B"
b10 +
b1110 O
b1110 y"
b1110 7#
b1110000000000111 a
b1110000000000111 }"
b1110 j
b1110 ["
b1101 `
b1101 a"
b1101 ~"
b1101 ~
b1101 F"
b1101 h"
b101 s
b101 D"
b101 X"
b101 Y"
b101 j"
b110 n
b110 Q"
b110 n"
b101 o
b101 R"
b101 m"
b10110 w
b10110 g"
b11001 r
b11001 k"
b1100 t
b1100 E"
b1100 i"
b11 z
b11 3"
b11 f"
b1100 W
b1100 K"
b1100 ,#
b1 S
b1 M"
b1 O"
b1 -#
b1011 T
b1011 L"
b0 D
b0 P"
b0 r"
b0 3#
b1011 F
b1011 2#
b1 H
b1 1#
13
#140000
03
#145000
b0 *"
b0 2"
0@
b1 %"
b1 5"
b1 B"
b1000 N
b1000 5#
b0 )"
b0 #"
b0 C"
b1 +"
b1 1"
b1 $"
b1 d
b1 _"
b1 s"
1K
b0 ("
b0 9"
b0 Z"
07
0[
0&"
b111 I
b0 h
b0 l
b0 b"
b0 (#
b0 m
b0 '#
b0 b
b0 W"
b0 ^"
b0 p"
b0 g
b0 7"
b1001000001000001 ^
b1001000001000001 z"
b1001000001000001 "#
b111 !#
b1 D
b1 P"
b1 r"
b1 3#
b1100 F
b1100 2#
b1101 W
b1101 K"
b1101 ,#
b101 S
b101 M"
b101 O"
b101 -#
b0xx00x ;
b0xx00x >"
b11000 Z
b11000 J"
b11000 +#
b1100 T
b1100 L"
b1110 ~
b1110 F"
b1110 h"
b0 s
b0 D"
b0 X"
b0 Y"
b0 j"
b111 n
b111 Q"
b111 n"
b0 o
b0 R"
b0 m"
b111 w
b111 g"
b0 q
b0 l"
b1 r
b1 k"
b1101 t
b1101 E"
b1101 i"
1x
0p
b0 a
b0 }"
b1 j
b1 ["
b0 `
b0 a"
b0 ~"
b111 O
b111 y"
b111 7#
b1 !
13
#150000
03
