tb_cpu.vcd
$date
	Sat May 24 01:29:23 2025
$end
$version
	Icarus Verilog
$end
$timescale
	1ps
$end
$scope module tb_cpu $end
$var wire 16 ! r0 [15:0] $end
$var wire 16 " r1 [15:0] $end
$var wire 16 # r10 [15:0] $end
$var wire 16 $ r11 [15:0] $end
$var wire 16 % r12 [15:0] $end
$var wire 16 & r13 [15:0] $end
$var wire 16 ' r14 [15:0] $end
$var wire 16 ( r15 [15:0] $end
$var wire 16 ) r2 [15:0] $end
$var wire 16 * r3 [15:0] $end
$var wire 16 + r4 [15:0] $end
$var wire 16 , r5 [15:0] $end
$var wire 16 - r6 [15:0] $end
$var wire 16 . r7 [15:0] $end
$var wire 16 / r8 [15:0] $end
$var wire 16 0 r9 [15:0] $end
$var parameter 32 1 DATA_WIDTH $end
$var parameter 32 2 WIDTH $end
$var reg 1 3 clk $end
$var reg 1 4 reset $end
$scope module DUT $end
$var wire 1 3 clk $end
$var wire 1 5 id_ex_flush $end
$var wire 1 6 if_id_flush $end
$var wire 1 7 is_str_reg_indirect $end
$var wire 16 8 mem_read_data [15:0] $end
$var wire 16 9 mem_write_data [15:0] $end
$var wire 1 : real_id_ex_flush $end
$var wire 1 ; real_if_id_stall $end
$var wire 1 < real_if_id_write $end
$var wire 1 = real_pc_write $end
$var wire 1 4 reset $end
$var wire 1 > zero_flag $end
$var wire 16 ? wb_write_data [15:0] $end
$var wire 1 @ wb_reg_write $end
$var wire 16 A wb_read_data [15:0] $end
$var wire 4 B wb_rd [3:0] $end
$var wire 1 C wb_mem_to_reg $end
$var wire 16 D wb_alu_result [15:0] $end
$var wire 16 E str_addr [15:0] $end
$var wire 1 F stall $end
$var wire 1 G reg_write $end
$var wire 1 H pc_write $end
$var wire 16 I pc_next [15:0] $end
$var wire 16 J pc_current [15:0] $end
$var wire 1 K mem_write $end
$var wire 1 L mem_reg_write $end
$var wire 1 M mem_read $end
$var wire 4 N mem_rd [3:0] $end
$var wire 16 O mem_pc [15:0] $end
$var wire 1 P mem_mem_write $end
$var wire 1 Q mem_mem_read $end
$var wire 1 R mem_branch $end
$var wire 16 S mem_alu_result [15:0] $end
$var wire 1 T ldpc $end
$var wire 16 U instr [15:0] $end
$var wire 1 V if_id_write $end
$var wire 16 W if_id_pc [15:0] $end
$var wire 16 X if_id_instr [15:0] $end
$var wire 4 Y id_rt [3:0] $end
$var wire 4 Z id_rs [3:0] $end
$var wire 16 [ id_reg_data2 [15:0] $end
$var wire 16 \ id_reg_data1 [15:0] $end
$var wire 4 ] id_rd [3:0] $end
$var wire 4 ^ id_opcode [3:0] $end
$var wire 16 _ id_jump_target [15:0] $end
$var wire 16 ` id_imm_ext [15:0] $end
$var wire 6 a id_imm6 [5:0] $end
$var wire 4 b id_ex_rt [3:0] $end
$var wire 4 c id_ex_rs [3:0] $end
$var wire 1 d id_ex_reg_write $end
$var wire 16 e id_ex_reg_data2 [15:0] $end
$var wire 16 f id_ex_reg_data1 [15:0] $end
$var wire 4 g id_ex_rd [3:0] $end
$var wire 16 h id_ex_pc [15:0] $end
$var wire 1 i id_ex_mem_write $end
$var wire 1 j id_ex_mem_read $end
$var wire 16 k id_ex_imm_ext [15:0] $end
$var wire 1 l id_ex_branch $end
$var wire 1 m id_ex_alu_src $end
$var wire 3 n id_ex_alu_op [2:0] $end
$var wire 1 o halt $end
$var wire 2 p forwardB [1:0] $end
$var wire 2 q forwardA [1:0] $end
$var wire 1 r ex_is_str_reg_indirect $end
$var wire 16 s ex_forw_B [15:0] $end
$var wire 16 t ex_forw_A [15:0] $end
$var wire 16 u ex_alu_result [15:0] $end
$var wire 1 v branch $end
$var wire 1 w alu_src $end
$var wire 3 x alu_op [2:0] $end
$var wire 16 y alu_in2_reg [15:0] $end
$var wire 16 z alu_in2 [15:0] $end
$var wire 16 { alu_in1 [15:0] $end
$var parameter 32 | DATA_WIDTH $end
$var parameter 32 } DMEM_DEPTH $end
$var parameter 32 ~ IMEM_DEPTH $end
$var parameter 32 !" REGADDR_W $end
$var parameter 32 "" WIDTH $end
$scope module ALU_I $end
$var wire 16 #" a [15:0] $end
$var wire 16 $" b [15:0] $end
$var wire 1 > zero $end
$var wire 3 %" alu_op [2:0] $end
$var parameter 32 &" DATA_WIDTH $end
$var reg 16 '" result [15:0] $end
$upscope $end
$scope module CONTROL $end
$var wire 4 (" opcode [3:0] $end
$var wire 1 > zero $end
$var reg 3 )" alu_op [2:0] $end
$var reg 1 w alu_src $end
$var reg 1 v branch $end
$var reg 1 o halt $end
$var reg 1 T ldpc $end
$var reg 1 M mem_read $end
$var reg 1 K mem_write $end
$var reg 1 G reg_write $end
$upscope $end
$scope module DMEM $end
$var wire 8 *" addr [7:0] $end
$var wire 1 3 clk $end
$var wire 16 +" read_data [15:0] $end
$var wire 16 ," write_data [15:0] $end
$var wire 1 P mem_write $end
$var wire 1 Q mem_read $end
$var parameter 32 -" ADDR_WIDTH $end
$var parameter 32 ." DATA_WIDTH $end
$var parameter 136 /" MEMFILE $end
$upscope $end
$scope module EX_MEM $end
$var wire 1 3 clk $end
$var wire 16 0" ex_alu_result [15:0] $end
$var wire 16 1" ex_reg_data2 [15:0] $end
$var wire 1 4 reset $end
$var wire 1 d ex_reg_write $end
$var wire 4 2" ex_rd [3:0] $end
$var wire 16 3" ex_pc [15:0] $end
$var wire 1 i ex_mem_write $end
$var wire 1 j ex_mem_read $end
$var wire 1 l ex_branch $end
$var parameter 32 4" DATA_WIDTH $end
$var parameter 32 5" PC_WIDTH $end
$var parameter 32 6" REGADDR_WIDTH $end
$var reg 16 7" mem_alu_result [15:0] $end
$var reg 1 R mem_branch $end
$var reg 1 Q mem_mem_read $end
$var reg 1 P mem_mem_write $end
$var reg 16 8" mem_pc [15:0] $end
$var reg 4 9" mem_rd [3:0] $end
$var reg 1 L mem_reg_write $end
$var reg 16 :" mem_write_data [15:0] $end
$upscope $end
$scope module FORWARD_UNIT $end
$var wire 4 ;" ex_mem_rd [3:0] $end
$var wire 1 L ex_mem_reg_write $end
$var wire 1 @ wb_reg_write $end
$var wire 4 <" wb_rd [3:0] $end
$var wire 4 =" id_ex_rt [3:0] $end
$var wire 4 >" id_ex_rs [3:0] $end
$var parameter 32 ?" REGADDR_WIDTH $end
$var reg 2 @" forwardA [1:0] $end
$var reg 2 A" forwardB [1:0] $end
$upscope $end
$scope module HAZARD_UNIT $end
$var wire 3 B" id_ex_rd [2:0] $end
$var wire 3 C" if_id_rs [2:0] $end
$var wire 3 D" if_id_rt [2:0] $end
$var wire 1 j id_ex_mem_read $end
$var reg 1 V if_id_write $end
$var reg 1 H pc_write $end
$var reg 1 F stall $end
$upscope $end
$scope module ID_EX $end
$var wire 1 3 clk $end
$var wire 1 : flush $end
$var wire 3 E" id_alu_op [2:0] $end
$var wire 1 w id_alu_src $end
$var wire 1 v id_branch $end
$var wire 1 7 id_is_str_reg_indirect $end
$var wire 1 M id_mem_read $end
$var wire 1 K id_mem_write $end
$var wire 4 F" id_rd [3:0] $end
$var wire 1 G id_reg_write $end
$var wire 4 G" id_rs [3:0] $end
$var wire 4 H" id_rt [3:0] $end
$var wire 1 4 reset $end
$var wire 16 I" id_read_data2 [15:0] $end
$var wire 16 J" id_read_data1 [15:0] $end
$var wire 16 K" id_pc [15:0] $end
$var wire 16 L" id_imm [15:0] $end
$var parameter 32 M" DATA_WIDTH $end
$var parameter 32 N" PC_WIDTH $end
$var parameter 32 O" REGADDR_WIDTH $end
$var reg 3 P" ex_alu_op [2:0] $end
$var reg 1 m ex_alu_src $end
$var reg 1 l ex_branch $end
$var reg 16 Q" ex_imm_ext [15:0] $end
$var reg 1 r ex_is_str_reg_indirect $end
$var reg 1 j ex_mem_read $end
$var reg 1 i ex_mem_write $end
$var reg 16 R" ex_pc [15:0] $end
$var reg 4 S" ex_rd [3:0] $end
$var reg 16 T" ex_reg_data1 [15:0] $end
$var reg 16 U" ex_reg_data2 [15:0] $end
$var reg 1 d ex_reg_write $end
$var reg 4 V" ex_rs [3:0] $end
$var reg 4 W" ex_rt [3:0] $end
$upscope $end
$scope module ID_REGFILE $end
$var wire 1 3 clk $end
$var wire 4 X" read_reg1 [3:0] $end
$var wire 4 Y" read_reg2 [3:0] $end
$var wire 1 4 reset $end
$var wire 16 Z" write_data [15:0] $end
$var wire 4 [" write_reg [3:0] $end
$var wire 1 @ reg_write $end
$var wire 16 \" read_data2 [15:0] $end
$var wire 16 ]" read_data1 [15:0] $end
$var parameter 32 ^" DATA_WIDTH $end
$var parameter 36 _" NUM_REGS $end
$var parameter 32 `" REGADDR_WIDTH $end
$scope begin $unm_blk_40 $end
$var integer 32 a" i [31:0] $end
$upscope $end
$upscope $end
$scope module IF_ID $end
$var wire 1 3 clk $end
$var wire 1 6 flush $end
$var wire 1 4 reset $end
$var wire 1 ; stall $end
$var wire 16 b" if_pc [15:0] $end
$var wire 16 c" if_instr [15:0] $end
$var parameter 32 d" INSTR_WIDTH $end
$var parameter 32 e" PC_WIDTH $end
$var reg 16 f" id_instr [15:0] $end
$var reg 16 g" id_pc [15:0] $end
$upscope $end
$scope module IMEM $end
$var wire 8 h" addr [7:0] $end
$var wire 16 i" instr [15:0] $end
$var parameter 32 j" ADDR_WIDTH $end
$var parameter 32 k" DATA_WIDTH $end
$var parameter 144 l" MEMFILE $end
$scope begin $unm_blk_4 $end
$var integer 32 m" i [31:0] $end
$upscope $end
$upscope $end
$scope module IMM_GEN $end
$var wire 6 n" imm_in [5:0] $end
$var wire 16 o" imm_out [15:0] $end
$var parameter 32 p" IN_WIDTH $end
$var parameter 32 q" OUT_WIDTH $end
$upscope $end
$scope module MEM_WB $end
$var wire 1 3 clk $end
$var wire 16 r" mem_alu_result [15:0] $end
$var wire 1 Q mem_mem_read $end
$var wire 4 s" mem_rd [3:0] $end
$var wire 16 t" mem_read_data [15:0] $end
$var wire 1 L mem_reg_write $end
$var wire 1 4 reset $end
$var parameter 32 u" DATA_WIDTH $end
$var parameter 32 v" REGADDR_WIDTH $end
$var reg 16 w" wb_alu_result [15:0] $end
$var reg 1 C wb_mem_to_reg $end
$var reg 4 x" wb_rd [3:0] $end
$var reg 16 y" wb_read_data [15:0] $end
$var reg 1 @ wb_reg_write $end
$upscope $end
$scope module PC $end
$var wire 1 3 clk $end
$var wire 16 z" pc_in [15:0] $end
$var wire 1 = pc_write $end
$var wire 1 4 reset $end
$var parameter 32 {" WIDTH $end
$var reg 16 |" pc_out [15:0] $end
$upscope $end
$upscope $end
$upscope $end
$enddefinitions $end
$comment Show the parameter values. $end
$dumpall
b10000 {"
b100 v"
b10000 u"
b10000 q"
b110 p"
b10010010100010001001101001011110110100101101110011100110111010001110010010111110110100101101110011010010111010000101110011010000110010101111000 l"
b10000 k"
b1000 j"
b10000 e"
b10000 d"
b100 `"
b10000 _"
b10000 ^"
b100 O"
b10000 N"
b10000 M"
b100 ?"
b100 6"
b10000 5"
b10000 4"
b100100101000100010011010010111101100100011000010111010001100001010111110110100101101110011010010111010000101110011010000110010101111000 /"
b10000 ."
b1000 -"
b10000 &"
b10000 ""
b100 !"
b100000000 ~
b100000000 }
b10000 |
b10000 2
b10000 1
$end
#0
$dumpvars
b0 |"
b1 z"
b0 y"
b0 x"
b0 w"
bz t"
b0 s"
b0 r"
b0 o"
b0 n"
b100000000 m"
b10000000000101 i"
b0 h"
b0 g"
b0 f"
b10000000000101 c"
b0 b"
b10000 a"
b0 ]"
b0 \"
b0 ["
b0 Z"
b0 Y"
b0 X"
b0 W"
b0 V"
b0 U"
b0 T"
b0 S"
b0 R"
b0 Q"
b0 P"
b0 L"
b0 K"
b0 J"
b0 I"
b0 H"
b0 G"
b0 F"
b0 E"
b0 D"
b0 C"
b0 B"
b0 A"
b0 @"
b0 >"
b0 ="
b0 <"
b0 ;"
b0 :"
b0 9"
b0 8"
b0 7"
b0 3"
b0 2"
b0 1"
b0 0"
b0 ,"
bz +"
b0 *"
b0 )"
b0 ("
b0 '"
b0 %"
b0 $"
b0 #"
b0 {
b0 z
b0 y
b0 x
0w
0v
b0 u
b0 t
b0 s
xr
b0 q
b0 p
0o
b0 n
0m
0l
b0 k
0j
0i
b0 h
b0 g
b0 f
b0 e
0d
b0 c
b0 b
b0 a
b0 `
b0 _
b0 ^
b0 ]
b0 \
b0 [
b0 Z
b0 Y
b0 X
b0 W
1V
b10000000000101 U
0T
b0 S
0R
0Q
0P
b0 O
b0 N
0M
0L
0K
b0 J
b1 I
1H
1G
0F
b0 E
b0 D
0C
b0 B
b0 A
0@
b0 ?
1>
1=
1<
0;
0:
b0 9
bz 8
07
06
05
14
03
b0 0
b0 /
b0 .
b0 -
b0 ,
b0 +
b0 *
b0 )
b0 (
b0 '
b0 &
b0 %
b0 $
b0 #
b0 "
b0 !
$end
#1000
04
#5000
b101 D"
b10 x
b10 )"
b10 E"
1w
1G
b101 _
b101 `
b101 L"
b101 o"
b101 a
b101 n"
b101 Y
b101 H"
b101 Y"
b10 ^
b10 ("
b10 I
b10 z"
b10000100001111 U
b10000100001111 c"
b10000100001111 i"
b1 h"
bz A
bz y"
0r
1d
b10000000000101 X
b10000000000101 f"
b1 J
b1 b"
b1 |"
13
#10000
03
#15000
b10 x
b10 )"
b10 E"
1w
1G
0>
b101 u
b101 '"
b101 0"
b111 D"
b101 z
b101 $"
b11 I
b11 z"
b1001000100000001 U
b1001000100000001 c"
b1001000100000001 i"
b10 h"
b100001111 _
b1111 `
b1111 L"
b1111 o"
b1111 a
b1111 n"
b1111 Y
b1111 H"
b1111 Y"
b1 ]
b1 F"
b101 E
b10 J
b10 b"
b10 |"
b10000100001111 X
b10000100001111 f"
b1 W
b1 K"
b1 g"
b101 b
b101 ="
b101 W"
b101 k
b101 Q"
1m
b10 n
b10 %"
b10 P"
1L
13
#20000
03
#25000
b1111 u
b1111 '"
b1111 0"
b1111 z
b1111 $"
b1 D"
17
1K
b10 x
b10 )"
b10 E"
1w
0G
b1 B"
b1111 E
b100000001 _
b1 `
b1 L"
b1 o"
b1 a
b1 n"
b1 Y
b1 H"
b1 Y"
b1001 ^
b1001 ("
b100 I
b100 z"
b1010001000010001 U
b1010001000010001 c"
b1010001000010001 i"
b11 h"
1@
b0x0x 9
b0x0x ,"
b101 S
b101 7"
b101 r"
b1 g
b1 2"
b1 S"
b1111 b
b1111 ="
b1111 W"
b1111 k
b1111 Q"
b1 h
b1 3"
b1 R"
b1001000100000001 X
b1001000100000001 f"
b10 W
b10 K"
b10 g"
b11 J
b11 b"
b11 |"
13
#30000
03
#35000
b0 *"
b1 C"
07
1M
1G
b10 x
b10 )"
b10 E"
1w
0K
b1111 y
b1111 s
b1111 1"
b0 \
b0 J"
b0 ]"
b101 I
b101 z"
b1011010000000010 U
b1011010000000010 c"
b1011010000000010 i"
b100 h"
b10001 _
b10001 `
b10001 L"
b10001 o"
b10001 a
b10001 n"
b1 Z
b1 G"
b1 X"
b10 ]
b10 F"
b1010 ^
b1010 ("
b0 E
b10 p
b10 A"
b101 ?
b101 Z"
b100 J
b100 b"
b100 |"
b1010001000010001 X
b1010001000010001 f"
b11 W
b11 K"
b11 g"
1r
b1 b
b1 ="
b1 W"
b1 k
b1 Q"
b10 h
b10 3"
b10 R"
1i
0d
b1 N
b1 9"
b1 ;"
b1 s"
b0xxxx 9
b0xxxx ,"
b1111 S
b1111 7"
b1111 r"
b1 O
b1 8"
b101 D
b101 w"
13
#40000
03
#45000
b1111 {
b1111 #"
b1111 t
b10001 u
b10001 '"
b10001 0"
1;
1:
b101 *"
b1111 y
b1111 s
b1111 1"
b10001 z
b10001 $"
0<
0=
15
b10 D"
b0 C"
b101 \
b101 J"
b101 ]"
b10 x
b10 )"
b10 E"
0w
0M
1G
b1111 ?
b1111 Z"
b10001 E
b10 B"
b1 q
b1 @"
b1 p
b1 A"
0V
0H
1F
b10 _
b10 `
b10 L"
b10 o"
b10 a
b10 n"
b10 Y
b10 H"
b10 Y"
b0 Z
b0 G"
b0 X"
b100 ]
b100 F"
b1011 ^
b1011 ("
b110 I
b110 z"
b111000000000000 U
b111000000000000 c"
b111000000000000 i"
b101 h"
b1 B
b1 <"
b1 ["
b1 x"
b1111 D
b1111 w"
b1111 9
b1111 ,"
b1111 :"
b10 O
b10 8"
1P
0L
0r
b10 g
b10 2"
b10 S"
b1 c
b1 >"
b1 V"
b10001 k
b10001 Q"
b11 h
b11 3"
b11 R"
0i
1j
1d
b1011010000000010 X
b1011010000000010 f"
b100 W
b100 K"
b100 g"
b101 J
b101 b"
b101 |"
b101 !
13
#50000
03
#55000
b10 x
b10 )"
b10 E"
1G
1>
0;
0:
b0 y
b0 s
b0 1"
b0 {
b0 #"
b0 t
b0 z
b0 $"
1<
1=
05
b0 B"
b0 E
b0 u
b0 '"
b0 0"
1V
1H
0F
b1111 8
b1111 +"
b1111 t"
b0 p
b0 A"
b0 q
b0 @"
b1111 "
b0 g
b0 2"
b0 S"
b0 b
b0 ="
b0 W"
b0 c
b0 >"
b0 V"
b0 k
b0 Q"
b0 h
b0 3"
b0 R"
0m
b0 n
b0 %"
b0 P"
0j
0d
b10 N
b10 9"
b10 ;"
b10 s"
b0xxxx1 9
b0xxxx1 ,"
b10001 S
b10001 7"
b10001 r"
b11 O
b11 8"
0P
1Q
1L
0@
13
#60000
03
#65000
0>
b1111 u
b1111 '"
b1111 0"
b1111 z
b1111 $"
1;
0<
0=
b1111 y
b1111 s
b1111 1"
1:
b101 {
b101 #"
b101 t
b0 D"
b101 [
b101 I"
b101 \"
1o
b0 x
b0 )"
b0 E"
0G
bz 8
bz +"
bz t"
b100 B"
b1 p
b1 A"
b10 E
b0 _
b0 `
b0 L"
b0 o"
b0 a
b0 n"
b0 Y
b0 H"
b0 Y"
b0 ]
b0 F"
b111 ^
b111 ("
b111 I
b111 z"
b0 U
b0 c"
b0 i"
b110 h"
b10 B
b10 <"
b10 ["
b10 x"
b10001 D
b10001 w"
b1111 A
b1111 y"
1C
1@
b0 N
b0 9"
b0 ;"
b0 s"
b0 :"
b0 9
b0 ,"
b0 S
b0 7"
b0 r"
b0 O
b0 8"
0Q
0L
b100 g
b100 2"
b100 S"
b10 b
b10 ="
b10 W"
b10 k
b10 Q"
b101 f
b101 T"
b100 h
b100 3"
b100 R"
b10 n
b10 %"
b10 P"
1d
b111000000000000 X
b111000000000000 f"
b101 W
b101 K"
b101 g"
b110 J
b110 b"
b110 |"
13
#70000
03
#75000
1o
1>
b0 z
b0 $"
b0 y
b0 s
b0 1"
b0 {
b0 #"
b0 t
b0 B"
b0 E
b0 u
b0 '"
b0 0"
b0 ?
b0 Z"
b0 p
b0 A"
b1111 )
b0 g
b0 2"
b0 S"
b0 b
b0 ="
b0 W"
b0 k
b0 Q"
b0 f
b0 T"
b0 h
b0 3"
b0 R"
b0 n
b0 %"
b0 P"
0d
b100 N
b100 9"
b100 ;"
b100 s"
b1111 :"
b1111 9
b1111 ,"
b1111 S
b1111 7"
b1111 r"
b100 O
b100 8"
1L
b0 B
b0 <"
b0 ["
b0 x"
b0 D
b0 w"
bz A
bz y"
0C
0@
13
#80000
03
#85000
b1111 ?
b1111 Z"
b100 B
b100 <"
b100 ["
b100 x"
b1111 D
b1111 w"
1@
b0 N
b0 9"
b0 ;"
b0 s"
b0 :"
b0 9
b0 ,"
b0 S
b0 7"
b0 r"
b0 O
b0 8"
0L
13
#90000
03
#95000
b0 ?
b0 Z"
b1111 +
b0 B
b0 <"
b0 ["
b0 x"
b0 D
b0 w"
0@
13
