tb_cpu.vcd
$date
	Mon May 26 13:57:04 2025
$end
$version
	Icarus Verilog
$end
$timescale
	1ps
$end
$scope module tb_cpu $end
$var wire 16 ! r0 [15:0] $end
$var wire 16 " r1 [15:0] $end
$var wire 16 # r10 [15:0] $end
$var wire 16 $ r11 [15:0] $end
$var wire 16 % r12 [15:0] $end
$var wire 16 & r13 [15:0] $end
$var wire 16 ' r14 [15:0] $end
$var wire 16 ( r15 [15:0] $end
$var wire 16 ) r2 [15:0] $end
$var wire 16 * r3 [15:0] $end
$var wire 16 + r4 [15:0] $end
$var wire 16 , r5 [15:0] $end
$var wire 16 - r6 [15:0] $end
$var wire 16 . r7 [15:0] $end
$var wire 16 / r8 [15:0] $end
$var wire 16 0 r9 [15:0] $end
$var parameter 32 1 DATA_WIDTH $end
$var parameter 32 2 WIDTH $end
$var reg 1 3 clk $end
$var reg 1 4 reset $end
$scope module DUT $end
$var wire 1 3 clk $end
$var wire 1 5 id_ex_flush $end
$var wire 4 6 id_jr_reg [3:0] $end
$var wire 1 7 if_id_flush $end
$var wire 1 8 is_str_reg_indirect $end
$var wire 16 9 jr_target [15:0] $end
$var wire 16 : mem_read_data [15:0] $end
$var wire 16 ; mem_write_data [15:0] $end
$var wire 1 < real_id_ex_flush $end
$var wire 1 = real_if_id_stall $end
$var wire 1 > real_if_id_write $end
$var wire 1 ? real_pc_write $end
$var wire 1 4 reset $end
$var wire 1 @ zero_flag $end
$var wire 16 A wb_write_data [15:0] $end
$var wire 1 B wb_reg_write $end
$var wire 16 C wb_read_data [15:0] $end
$var wire 4 D wb_rd [3:0] $end
$var wire 1 E wb_mem_to_reg $end
$var wire 16 F wb_jal_link_value [15:0] $end
$var wire 1 G wb_is_jal $end
$var wire 16 H wb_alu_result [15:0] $end
$var wire 16 I str_addr [15:0] $end
$var wire 1 J stall $end
$var wire 1 K reg_write $end
$var wire 4 L read_reg1 [3:0] $end
$var wire 1 M pc_write $end
$var wire 16 N pc_next [15:0] $end
$var wire 16 O pc_current [15:0] $end
$var wire 1 P mem_write $end
$var wire 1 Q mem_reg_write $end
$var wire 1 R mem_read $end
$var wire 4 S mem_rd [3:0] $end
$var wire 16 T mem_pc [15:0] $end
$var wire 1 U mem_mem_write $end
$var wire 1 V mem_mem_read $end
$var wire 16 W mem_jal_link_value [15:0] $end
$var wire 1 X mem_is_jal $end
$var wire 1 Y mem_branch $end
$var wire 16 Z mem_alu_result [15:0] $end
$var wire 1 [ ldpc $end
$var wire 1 \ is_jr $end
$var wire 1 ] is_jal $end
$var wire 16 ^ instr [15:0] $end
$var wire 1 _ if_id_write $end
$var wire 16 ` if_id_pc [15:0] $end
$var wire 16 a if_id_instr [15:0] $end
$var wire 4 b id_rt [3:0] $end
$var wire 4 c id_rs [3:0] $end
$var wire 16 d id_reg_data2 [15:0] $end
$var wire 16 e id_reg_data1 [15:0] $end
$var wire 4 f id_rd [3:0] $end
$var wire 4 g id_opcode [3:0] $end
$var wire 16 h id_jump_target [15:0] $end
$var wire 16 i id_jr_target [15:0] $end
$var wire 16 j id_jal_link_value [15:0] $end
$var wire 1 k id_is_jal $end
$var wire 16 l id_imm_ext [15:0] $end
$var wire 6 m id_imm6 [5:0] $end
$var wire 4 n id_ex_rt [3:0] $end
$var wire 4 o id_ex_rs [3:0] $end
$var wire 1 p id_ex_reg_write $end
$var wire 16 q id_ex_reg_data2 [15:0] $end
$var wire 16 r id_ex_reg_data1 [15:0] $end
$var wire 4 s id_ex_rd [3:0] $end
$var wire 16 t id_ex_pc [15:0] $end
$var wire 1 u id_ex_mem_write $end
$var wire 1 v id_ex_mem_read $end
$var wire 16 w id_ex_imm_ext [15:0] $end
$var wire 1 x id_ex_branch $end
$var wire 1 y id_ex_alu_src $end
$var wire 3 z id_ex_alu_op [2:0] $end
$var wire 1 { halt $end
$var wire 2 | forwardB [1:0] $end
$var wire 2 } forwardA [1:0] $end
$var wire 16 ~ ex_jal_link_value [15:0] $end
$var wire 1 !" ex_is_str_reg_indirect $end
$var wire 1 "" ex_is_jal $end
$var wire 16 #" ex_forw_B [15:0] $end
$var wire 16 $" ex_forw_A [15:0] $end
$var wire 16 %" ex_alu_result [15:0] $end
$var wire 1 &" branch $end
$var wire 1 '" alu_src $end
$var wire 3 (" alu_op [2:0] $end
$var wire 16 )" alu_in2_reg [15:0] $end
$var wire 16 *" alu_in2 [15:0] $end
$var wire 16 +" alu_in1 [15:0] $end
$var parameter 32 ," DATA_WIDTH $end
$var parameter 32 -" DMEM_DEPTH $end
$var parameter 32 ." IMEM_DEPTH $end
$var parameter 32 /" REGADDR_W $end
$var parameter 32 0" WIDTH $end
$scope module ALU_I $end
$var wire 16 1" a [15:0] $end
$var wire 16 2" b [15:0] $end
$var wire 1 @ zero $end
$var wire 3 3" alu_op [2:0] $end
$var parameter 32 4" DATA_WIDTH $end
$var reg 16 5" result [15:0] $end
$upscope $end
$scope module CONTROL $end
$var wire 4 6" opcode [3:0] $end
$var wire 1 @ zero $end
$var reg 3 7" alu_op [2:0] $end
$var reg 1 '" alu_src $end
$var reg 1 &" branch $end
$var reg 1 { halt $end
$var reg 1 [ ldpc $end
$var reg 1 R mem_read $end
$var reg 1 P mem_write $end
$var reg 1 K reg_write $end
$upscope $end
$scope module DMEM $end
$var wire 8 8" addr [7:0] $end
$var wire 1 3 clk $end
$var wire 16 9" read_data [15:0] $end
$var wire 16 :" write_data [15:0] $end
$var wire 1 U mem_write $end
$var wire 1 V mem_read $end
$var parameter 32 ;" ADDR_WIDTH $end
$var parameter 32 <" DATA_WIDTH $end
$var parameter 136 =" MEMFILE $end
$upscope $end
$scope module EX_MEM $end
$var wire 1 3 clk $end
$var wire 16 >" ex_alu_result [15:0] $end
$var wire 16 ?" ex_reg_data2 [15:0] $end
$var wire 1 4 reset $end
$var wire 1 p ex_reg_write $end
$var wire 4 @" ex_rd [3:0] $end
$var wire 16 A" ex_pc [15:0] $end
$var wire 1 u ex_mem_write $end
$var wire 1 v ex_mem_read $end
$var wire 16 B" ex_jal_link_value [15:0] $end
$var wire 1 "" ex_is_jal $end
$var wire 1 x ex_branch $end
$var parameter 32 C" DATA_WIDTH $end
$var parameter 32 D" PC_WIDTH $end
$var parameter 32 E" REGADDR_WIDTH $end
$var reg 16 F" mem_alu_result [15:0] $end
$var reg 1 Y mem_branch $end
$var reg 1 X mem_is_jal $end
$var reg 16 G" mem_jal_link_value [15:0] $end
$var reg 1 V mem_mem_read $end
$var reg 1 U mem_mem_write $end
$var reg 16 H" mem_pc [15:0] $end
$var reg 4 I" mem_rd [3:0] $end
$var reg 1 Q mem_reg_write $end
$var reg 16 J" mem_write_data [15:0] $end
$upscope $end
$scope module FORWARD_UNIT $end
$var wire 4 K" ex_mem_rd [3:0] $end
$var wire 1 Q ex_mem_reg_write $end
$var wire 1 B wb_reg_write $end
$var wire 4 L" wb_rd [3:0] $end
$var wire 4 M" id_ex_rt [3:0] $end
$var wire 4 N" id_ex_rs [3:0] $end
$var parameter 32 O" REGADDR_WIDTH $end
$var reg 2 P" forwardA [1:0] $end
$var reg 2 Q" forwardB [1:0] $end
$upscope $end
$scope module HAZARD_UNIT $end
$var wire 1 \ id_is_jr $end
$var wire 4 R" if_id_rs [3:0] $end
$var wire 4 S" if_id_rt [3:0] $end
$var wire 4 T" id_ex_rd [3:0] $end
$var wire 1 v id_ex_mem_read $end
$var wire 4 U" ex_rd [3:0] $end
$var wire 1 "" ex_is_jal $end
$var reg 1 _ if_id_write $end
$var reg 1 M pc_write $end
$var reg 1 J stall $end
$upscope $end
$scope module ID_EX $end
$var wire 1 3 clk $end
$var wire 1 < flush $end
$var wire 3 V" id_alu_op [2:0] $end
$var wire 1 '" id_alu_src $end
$var wire 1 &" id_branch $end
$var wire 1 k id_is_jal $end
$var wire 1 8 id_is_str_reg_indirect $end
$var wire 16 W" id_jal_link_value [15:0] $end
$var wire 1 R id_mem_read $end
$var wire 1 P id_mem_write $end
$var wire 4 X" id_rd [3:0] $end
$var wire 1 K id_reg_write $end
$var wire 4 Y" id_rs [3:0] $end
$var wire 4 Z" id_rt [3:0] $end
$var wire 1 4 reset $end
$var wire 16 [" id_read_data2 [15:0] $end
$var wire 16 \" id_read_data1 [15:0] $end
$var wire 16 ]" id_pc [15:0] $end
$var wire 16 ^" id_imm [15:0] $end
$var parameter 32 _" DATA_WIDTH $end
$var parameter 32 `" PC_WIDTH $end
$var parameter 32 a" REGADDR_WIDTH $end
$var reg 3 b" ex_alu_op [2:0] $end
$var reg 1 y ex_alu_src $end
$var reg 1 x ex_branch $end
$var reg 16 c" ex_imm_ext [15:0] $end
$var reg 1 "" ex_is_jal $end
$var reg 1 !" ex_is_str_reg_indirect $end
$var reg 16 d" ex_jal_link_value [15:0] $end
$var reg 1 v ex_mem_read $end
$var reg 1 u ex_mem_write $end
$var reg 16 e" ex_pc [15:0] $end
$var reg 4 f" ex_rd [3:0] $end
$var reg 16 g" ex_reg_data1 [15:0] $end
$var reg 16 h" ex_reg_data2 [15:0] $end
$var reg 1 p ex_reg_write $end
$var reg 4 i" ex_rs [3:0] $end
$var reg 4 j" ex_rt [3:0] $end
$upscope $end
$scope module ID_REGFILE $end
$var wire 1 3 clk $end
$var wire 4 k" read_reg1 [3:0] $end
$var wire 4 l" read_reg2 [3:0] $end
$var wire 1 4 reset $end
$var wire 16 m" write_data [15:0] $end
$var wire 4 n" write_reg [3:0] $end
$var wire 1 B reg_write $end
$var wire 16 o" read_data2 [15:0] $end
$var wire 16 p" read_data1 [15:0] $end
$var parameter 32 q" DATA_WIDTH $end
$var parameter 36 r" NUM_REGS $end
$var parameter 32 s" REGADDR_WIDTH $end
$scope begin $unm_blk_46 $end
$var integer 32 t" i [31:0] $end
$upscope $end
$upscope $end
$scope module IF_ID $end
$var wire 1 3 clk $end
$var wire 1 7 flush $end
$var wire 1 4 reset $end
$var wire 1 = stall $end
$var wire 16 u" if_pc [15:0] $end
$var wire 16 v" if_instr [15:0] $end
$var parameter 32 w" INSTR_WIDTH $end
$var parameter 32 x" PC_WIDTH $end
$var reg 16 y" id_instr [15:0] $end
$var reg 16 z" id_pc [15:0] $end
$upscope $end
$scope module IMEM $end
$var wire 8 {" addr [7:0] $end
$var wire 16 |" instr [15:0] $end
$var parameter 32 }" ADDR_WIDTH $end
$var parameter 32 ~" DATA_WIDTH $end
$var parameter 144 !# MEMFILE $end
$scope begin $unm_blk_4 $end
$var integer 32 "# i [31:0] $end
$upscope $end
$upscope $end
$scope module IMM_GEN $end
$var wire 6 ## imm_in [5:0] $end
$var wire 16 $# imm_out [15:0] $end
$var parameter 32 %# IN_WIDTH $end
$var parameter 32 &# OUT_WIDTH $end
$upscope $end
$scope module MEM_WB $end
$var wire 1 3 clk $end
$var wire 16 '# mem_alu_result [15:0] $end
$var wire 1 X mem_is_jal $end
$var wire 16 (# mem_jal_link_value [15:0] $end
$var wire 1 V mem_mem_read $end
$var wire 4 )# mem_rd [3:0] $end
$var wire 16 *# mem_read_data [15:0] $end
$var wire 1 Q mem_reg_write $end
$var wire 1 4 reset $end
$var parameter 32 +# DATA_WIDTH $end
$var parameter 32 ,# REGADDR_WIDTH $end
$var reg 16 -# wb_alu_result [15:0] $end
$var reg 1 G wb_is_jal $end
$var reg 16 .# wb_jal_link_value [15:0] $end
$var reg 1 E wb_mem_to_reg $end
$var reg 4 /# wb_rd [3:0] $end
$var reg 16 0# wb_read_data [15:0] $end
$var reg 1 B wb_reg_write $end
$upscope $end
$scope module PC $end
$var wire 1 3 clk $end
$var wire 16 1# pc_in [15:0] $end
$var wire 1 ? pc_write $end
$var wire 1 4 reset $end
$var parameter 32 2# WIDTH $end
$var reg 16 3# pc_out [15:0] $end
$upscope $end
$upscope $end
$upscope $end
$enddefinitions $end
$comment Show the parameter values. $end
$dumpall
b10000 2#
b100 ,#
b10000 +#
b10000 &#
b110 %#
b10010010100010001001101001011110110100101101110011100110111010001110010010111110110100101101110011010010111010000101110011010000110010101111000 !#
b10000 ~"
b1000 }"
b10000 x"
b10000 w"
b100 s"
b10000 r"
b10000 q"
b100 a"
b10000 `"
b10000 _"
b100 O"
b100 E"
b10000 D"
b10000 C"
b100100101000100010011010010111101100100011000010111010001100001010111110110100101101110011010010111010000101110011010000110010101111000 ="
b10000 <"
b1000 ;"
b10000 4"
b10000 0"
b100 /"
b100000000 ."
b100000000 -"
b10000 ,"
b10000 2
b10000 1
$end
#0
$dumpvars
b0 3#
b1 1#
b0 0#
b0 /#
b0 .#
b0 -#
bz *#
b0 )#
b0 (#
b0 '#
b0 $#
b0 ##
b100000000 "#
b10000000000000 |"
b0 {"
b0 z"
b0 y"
b10000000000000 v"
b0 u"
b10000 t"
b0 p"
b0 o"
b0 n"
b0 m"
b0 l"
b0 k"
b0 j"
b0 i"
b0 h"
b0 g"
b0 f"
b0 e"
b0 d"
b0 c"
b0 b"
b0 ^"
b0 ]"
b0 \"
b0 ["
b0 Z"
b0 Y"
b0 X"
b1 W"
b0 V"
b0 U"
b0 T"
b0 S"
b0 R"
b0 Q"
b0 P"
b0 N"
b0 M"
b0 L"
b0 K"
b0 J"
b0 I"
b0 H"
b0 G"
b0 F"
b0 B"
b0 A"
b0 @"
b0 ?"
b0 >"
b0 :"
bz 9"
b0 8"
b0 7"
b0 6"
b0 5"
b0 3"
b0 2"
b0 1"
b0 +"
b0 *"
b0 )"
b0 ("
0'"
0&"
b0 %"
b0 $"
b0 #"
0""
x!"
b0 ~
b0 }
b0 |
0{
b0 z
0y
0x
b0 w
0v
0u
b0 t
b0 s
b0 r
b0 q
0p
b0 o
b0 n
b0 m
b0 l
0k
b1 j
b0 i
b0 h
b0 g
b0 f
b0 e
b0 d
b0 c
b0 b
b0 a
b0 `
1_
b10000000000000 ^
0]
0\
0[
b0 Z
0Y
0X
b0 W
0V
0U
b0 T
b0 S
0R
0Q
0P
b0 O
b1 N
1M
b0 L
1K
0J
b0 I
b0 H
0G
b0 F
0E
b0 D
b0 C
0B
b0 A
1@
1?
1>
0=
0<
b0 ;
bz :
b0 9
08
07
b0 6
05
14
03
b0 0
b0 /
b0 .
b0 -
b0 ,
b0 +
b0 *
b0 )
b0 (
b0 '
b0 &
b0 %
b0 $
b0 #
b0 "
b0 !
$end
#1000
04
#5000
b10 ("
b10 7"
b10 V"
1'"
1K
b10 g
b10 6"
b10 N
b10 1#
b10000100000001 ^
b10000100000001 v"
b10000100000001 |"
b1 {"
bz C
bz 0#
b1 ~
b1 B"
b1 d"
0!"
1p
b10000000000000 a
b10000000000000 y"
b1 O
b1 u"
b1 3#
13
#10000
03
#15000
b11 N
b11 1#
b10001000000000 ^
b10001000000000 v"
b10001000000000 |"
b10 {"
b100000001 h
b1 l
b1 ^"
b1 $#
b1 m
b1 ##
b1 b
b1 S"
b1 Z"
b1 l"
b1 6
b1 f
b1 X"
b10 O
b10 u"
b10 3#
b10000100000001 a
b10000100000001 y"
b10 j
b10 W"
b1 `
b1 ]"
b1 z"
1y
b10 z
b10 3"
b10 b"
b1 W
b1 G"
b1 (#
1Q
13
#20000
03
#25000
b10 ("
b10 7"
b10 V"
1'"
1K
0@
b1 %"
b1 5"
b1 >"
b1 *"
b1 2"
b1 I
b0 h
b0 l
b0 ^"
b0 $#
b0 m
b0 ##
b0 b
b0 S"
b0 Z"
b0 l"
b10 6
b10 f
b10 X"
b100 N
b100 1#
b10001100000000 ^
b10001100000000 v"
b10001100000000 |"
b11 {"
b1 F
b1 .#
1B
b10 ~
b10 B"
b10 d"
b1 s
b1 @"
b1 T"
b1 U"
b1 f"
b1 n
b1 M"
b1 j"
b1 w
b1 c"
b1 t
b1 A"
b1 e"
b10001000000000 a
b10001000000000 y"
b11 j
b11 W"
b10 `
b10 ]"
b10 z"
b11 O
b11 u"
b11 3#
13
#30000
03
#35000
b10 ("
b10 7"
b10 V"
1'"
1K
1@
b0 %"
b0 5"
b0 >"
b0 *"
b0 2"
b101 N
b101 1#
b10010000000001 ^
b10010000000001 v"
b10010000000001 |"
b100 {"
b100000000 h
b11 6
b11 f
b11 X"
b0 I
b100 O
b100 u"
b100 3#
b10001100000000 a
b10001100000000 y"
b100 j
b100 W"
b11 `
b11 ]"
b11 z"
b11 ~
b11 B"
b11 d"
b10 s
b10 @"
b10 T"
b10 U"
b10 f"
b0 n
b0 M"
b0 j"
b0 w
b0 c"
b10 t
b10 A"
b10 e"
b10 W
b10 G"
b10 (#
b1 S
b1 I"
b1 K"
b1 )#
b0x ;
b0x :"
b1 Z
b1 F"
b1 '#
b1 T
b1 H"
13
#40000
03
#45000
b1 d
b1 ["
b1 o"
b1 A
b1 m"
b1 h
b1 l
b1 ^"
b1 $#
b1 m
b1 ##
b1 b
b1 S"
b1 Z"
b1 l"
b100 6
b100 f
b100 X"
b110 N
b110 1#
b10010100011001 ^
b10010100011001 v"
b10010100011001 |"
b101 {"
b1 D
b1 L"
b1 n"
b1 /#
b10 F
b10 .#
b1 H
b1 -#
b11 W
b11 G"
b11 (#
b10 S
b10 I"
b10 K"
b10 )#
b0 ;
b0 :"
b0 Z
b0 F"
b0 '#
b10 T
b10 H"
b100 ~
b100 B"
b100 d"
b11 s
b11 @"
b11 T"
b11 U"
b11 f"
b11 t
b11 A"
b11 e"
b10010000000001 a
b10010000000001 y"
b101 j
b101 W"
b100 `
b100 ]"
b100 z"
b101 O
b101 u"
b101 3#
13
#50000
03
#55000
b1 9
b1 i
b1 8"
b10 ("
b10 7"
b10 V"
1'"
1K
b1 e
b1 \"
b1 p"
0@
b1 %"
b1 5"
b1 >"
b1 L
b1 k"
b1 *"
b1 2"
b1 )"
b1 #"
b1 ?"
b0 d
b0 ["
b0 o"
b0 A
b0 m"
b111 N
b111 1#
b10011000000001 ^
b10011000000001 v"
b10011000000001 |"
b110 {"
b100011001 h
b11001 l
b11001 ^"
b11001 $#
b11001 m
b11001 ##
b1001 b
b1001 S"
b1001 Z"
b1001 l"
b1 c
b1 R"
b1 Y"
b101 6
b101 f
b101 X"
b1 I
b1 "
b110 O
b110 u"
b110 3#
b10010100011001 a
b10010100011001 y"
b110 j
b110 W"
b101 `
b101 ]"
b101 z"
b101 ~
b101 B"
b101 d"
b100 s
b100 @"
b100 T"
b100 U"
b100 f"
b1 n
b1 M"
b1 j"
b1 w
b1 c"
b1 q
b1 h"
b100 t
b100 A"
b100 e"
b100 W
b100 G"
b100 (#
b11 S
b11 I"
b11 K"
b11 )#
b11 T
b11 H"
b10 D
b10 L"
b10 n"
b10 /#
b11 F
b11 .#
b0 H
b0 -#
13
#60000
03
#65000
b0 9
b0 i
b0 8"
b11001 %"
b11001 5"
b11001 >"
b0 e
b0 \"
b0 p"
b11001 *"
b11001 2"
b0 )"
b0 #"
b0 ?"
b1 +"
b1 1"
b1 $"
b1 d
b1 ["
b1 o"
b0 L
b0 k"
b11001 I
b1 h
b1 l
b1 ^"
b1 $#
b1 m
b1 ##
b1 b
b1 S"
b1 Z"
b1 l"
b0 c
b0 R"
b0 Y"
b110 6
b110 f
b110 X"
b1000 N
b1000 1#
b100110010110 ^
b100110010110 v"
b100110010110 |"
b111 {"
b11 D
b11 L"
b11 n"
b11 /#
b100 F
b100 .#
b101 W
b101 G"
b101 (#
b100 S
b100 I"
b100 K"
b100 )#
b1 J"
b1 ;
b1 :"
b1 Z
b1 F"
b1 '#
b100 T
b100 H"
b110 ~
b110 B"
b110 d"
b101 s
b101 @"
b101 T"
b101 U"
b101 f"
b1001 n
b1001 M"
b1001 j"
b1 o
b1 N"
b1 i"
b11001 w
b11001 c"
b0 q
b0 h"
b1 r
b1 g"
b101 t
b101 A"
b101 e"
b10011000000001 a
b10011000000001 y"
b111 j
b111 W"
b110 `
b110 ]"
b110 z"
b111 O
b111 u"
b111 3#
13
#70000
03
#75000
b1 %"
b1 5"
b1 >"
b0 d
b0 ["
b0 o"
b1001 L
b1001 k"
b0 ("
b0 7"
b0 V"
0'"
1K
b1 *"
b1 2"
b1 )"
b1 #"
b1 ?"
b0 +"
b0 1"
b0 $"
b1 A
b1 m"
b1001 N
b1001 1#
b1001000010000001 ^
b1001000010000001 v"
b1001000010000001 |"
b1000 {"
b110010110 h
b10110 l
b10110 ^"
b10110 $#
b10110 m
b10110 ##
b110 b
b110 S"
b110 Z"
b110 l"
b1001 c
b1001 R"
b1001 Y"
b1001 6
b1001 f
b1001 X"
b0 g
b0 6"
b1 I
b1000 O
b1000 u"
b1000 3#
b100110010110 a
b100110010110 y"
b1000 j
b1000 W"
b111 `
b111 ]"
b111 z"
b111 ~
b111 B"
b111 d"
b110 s
b110 @"
b110 T"
b110 U"
b110 f"
b1 n
b1 M"
b1 j"
b0 o
b0 N"
b0 i"
b1 w
b1 c"
b1 q
b1 h"
b0 r
b0 g"
b110 t
b110 A"
b110 e"
b110 W
b110 G"
b110 (#
b101 S
b101 I"
b101 K"
b101 )#
b0 J"
b0xx00x ;
b0xx00x :"
b11001 Z
b11001 F"
b11001 '#
b101 T
b101 H"
b100 D
b100 L"
b100 n"
b100 /#
b101 F
b101 .#
b1 H
b1 -#
13
#80000
03
#85000
b11001 A
b11001 m"
b1 d
b1 ["
b1 o"
b1000 L
b1000 k"
18
b10 ("
b10 7"
b10 V"
1'"
1P
0K
b10 |
b10 Q"
b10110 I
b10000001 h
b1 l
b1 ^"
b1 $#
b1 m
b1 ##
b1 b
b1 S"
b1 Z"
b1 l"
b1000 c
b1000 R"
b1000 Y"
b0 6
b0 f
b0 X"
b1001 g
b1001 6"
b1010 N
b1010 1#
b1000000001 ^
b1000000001 v"
b1000000001 |"
b1001 {"
b101 D
b101 L"
b101 n"
b101 /#
b110 F
b110 .#
b11001 H
b11001 -#
b111 W
b111 G"
b111 (#
b110 S
b110 I"
b110 K"
b110 )#
b1 J"
b1 ;
b1 :"
b1 Z
b1 F"
b1 '#
b110 T
b110 H"
b1000 ~
b1000 B"
b1000 d"
b1001 s
b1001 @"
b1001 T"
b1001 U"
b1001 f"
b110 n
b110 M"
b110 j"
b1001 o
b1001 N"
b1001 i"
b10110 w
b10110 c"
b0 q
b0 h"
b111 t
b111 A"
b111 e"
0y
b0 z
b0 3"
b0 b"
b1001000010000001 a
b1001000010000001 y"
b1001 j
b1001 W"
b1000 `
b1000 ]"
b1000 z"
b1001 O
b1001 u"
b1001 3#
b1 +
13
#90000
03
#95000
b0 L
b0 k"
08
1K
b0 ("
b0 7"
b0 V"
0'"
0P
b1 A
b1 m"
b1011 N
b1011 1#
b10001000110 ^
b10001000110 v"
b10001000110 |"
b1010 {"
b1 h
b0 c
b0 R"
b0 Y"
b10 6
b10 f
b10 X"
b0 g
b0 6"
b0 I
b0 |
b0 Q"
b11001 ,
b1010 O
b1010 u"
b1010 3#
b1000000001 a
b1000000001 y"
b1010 j
b1010 W"
b1001 `
b1001 ]"
b1001 z"
b1001 ~
b1001 B"
b1001 d"
1!"
b0 s
b0 @"
b0 T"
b0 U"
b0 f"
b1 n
b1 M"
b1 j"
b1000 o
b1000 N"
b1000 i"
b1 w
b1 c"
b1 q
b1 h"
b1000 t
b1000 A"
b1000 e"
1y
b10 z
b10 3"
b10 b"
1u
0p
b1000 W
b1000 G"
b1000 (#
b1001 S
b1001 I"
b1001 K"
b1001 )#
b111 T
b111 H"
b110 D
b110 L"
b110 n"
b110 /#
b111 F
b111 .#
b1 H
b1 -#
13
#100000
03
#105000
b1 9
b1 i
b1 8"
b1 e
b1 \"
b1 p"
b100 L
b100 k"
b1 I
b1000110 h
b110 l
b110 ^"
b110 $#
b110 m
b110 ##
b110 b
b110 S"
b110 Z"
b110 l"
b100 c
b100 R"
b100 Y"
b100 6
b100 f
b100 X"
b1100 N
b1100 1#
b1011000000000001 ^
b1011000000000001 v"
b1011000000000001 |"
b1011 {"
b1001 D
b1001 L"
b1001 n"
b1001 /#
b1000 F
b1000 .#
b1001 W
b1001 G"
b1001 (#
b0 S
b0 I"
b0 K"
b0 )#
b1000 T
b1000 H"
1U
0Q
b1010 ~
b1010 B"
b1010 d"
0!"
b10 s
b10 @"
b10 T"
b10 U"
b10 f"
b0 o
b0 N"
b0 i"
b1001 t
b1001 A"
b1001 e"
0y
b0 z
b0 3"
b0 b"
0u
1p
b10001000110 a
b10001000110 y"
b1011 j
b1011 W"
b1010 `
b1010 ]"
b1010 z"
b1011 O
b1011 u"
b1011 3#
b1 -
13
#110000
03
#115000
b0 9
b0 i
b0 8"
b0 e
b0 \"
b0 p"
b10 %"
b10 5"
b10 >"
b0 L
b0 k"
b10 ("
b10 7"
b10 V"
1K
b1 +"
b1 1"
b1 $"
b1101 N
b1101 1#
b1011000100000010 ^
b1011000100000010 v"
b1011000100000010 |"
b1100 {"
b1 h
b1 l
b1 ^"
b1 $#
b1 m
b1 ##
b1 b
b1 S"
b1 Z"
b1 l"
b0 c
b0 R"
b0 Y"
b0 6
b0 f
b0 X"
b1011 g
b1011 6"
b110 I
b1 0
b1100 O
b1100 u"
b1100 3#
b1011000000000001 a
b1011000000000001 y"
b1100 j
b1100 W"
b1011 `
b1011 ]"
b1011 z"
b1011 ~
b1011 B"
b1011 d"
b100 s
b100 @"
b100 T"
b100 U"
b100 f"
b110 n
b110 M"
b110 j"
b100 o
b100 N"
b100 i"
b110 w
b110 c"
b1 r
b1 g"
b1010 t
b1010 A"
b1010 e"
b1010 W
b1010 G"
b1010 (#
b10 S
b10 I"
b10 K"
b10 )#
b1001 T
b1001 H"
0U
1Q
b0 D
b0 L"
b0 n"
b0 /#
b1001 F
b1001 .#
0B
13
#120000
03
#125000
b0 +"
b0 1"
b0 $"
b1 I
b1 %"
b1 5"
b1 >"
b100000010 h
b10 l
b10 ^"
b10 $#
b10 m
b10 ##
b10 b
b10 S"
b10 Z"
b10 l"
b1 6
b1 f
b1 X"
b1110 N
b1110 1#
b1010101010110 ^
b1010101010110 v"
b1010101010110 |"
b1101 {"
b10 D
b10 L"
b10 n"
b10 /#
b1010 F
b1010 .#
1B
b1011 W
b1011 G"
b1011 (#
b100 S
b100 I"
b100 K"
b100 )#
b0xx ;
b0xx :"
b10 Z
b10 F"
b10 '#
b1010 T
b1010 H"
b1100 ~
b1100 B"
b1100 d"
b0 s
b0 @"
b0 T"
b0 U"
b0 f"
b1 n
b1 M"
b1 j"
b0 o
b0 N"
b0 i"
b1 w
b1 c"
b0 r
b0 g"
b1011 t
b1011 A"
b1011 e"
b10 z
b10 3"
b10 b"
b1011000100000010 a
b1011000100000010 y"
b1101 j
b1101 W"
b1100 `
b1100 ]"
b1100 z"
b1101 O
b1101 u"
b1101 3#
13
#130000
03
#135000
b11001 9
b11001 i
b11001 8"
b11001 e
b11001 \"
b11001 p"
b101 L
b101 k"
b11 ("
b11 7"
b11 V"
1K
b10 A
b10 m"
b1111 N
b1111 1#
b1110000000001000 ^
b1110000000001000 v"
b1110000000001000 |"
b1110 {"
b101010110 h
b10110 l
b10110 ^"
b10110 $#
b10110 m
b10110 ##
b110 b
b110 S"
b110 Z"
b110 l"
b101 c
b101 R"
b101 Y"
b101 6
b101 f
b101 X"
b1 g
b1 6"
b10 I
b1 )
b1110 O
b1110 u"
b1110 3#
b1010101010110 a
b1010101010110 y"
b1110 j
b1110 W"
b1101 `
b1101 ]"
b1101 z"
b1101 ~
b1101 B"
b1101 d"
b1 s
b1 @"
b1 T"
b1 U"
b1 f"
b10 n
b10 M"
b10 j"
b10 w
b10 c"
b1100 t
b1100 A"
b1100 e"
b1100 W
b1100 G"
b1100 (#
b0 S
b0 I"
b0 K"
b0 )#
b1 ;
b1 :"
b1 Z
b1 F"
b1 '#
b1011 T
b1011 H"
b100 D
b100 L"
b100 n"
b100 /#
b1011 F
b1011 .#
b10 H
b10 -#
13
#140000
03
#145000
b1 9
b1 i
b1 8"
b1 e
b1 \"
b1 p"
b1 A
b1 m"
b11001 +"
b11001 1"
b11001 $"
b0 d
b0 ["
b0 o"
b0 L
b0 k"
17
1[
1&"
b11 ("
b11 7"
b11 V"
0K
b10110 I
b11000 %"
b11000 5"
b11000 >"
b1000 h
b1000 l
b1000 ^"
b1000 $#
b1000 m
b1000 ##
b1000 b
b1000 S"
b1000 Z"
b1000 l"
b0 c
b0 R"
b0 Y"
b0 6
b0 f
b0 X"
b1110 g
b1110 6"
b1000 N
b1000 1#
b111000000000000 ^
b111000000000000 v"
b111000000000000 |"
b1111 {"
b0 D
b0 L"
b0 n"
b0 /#
b1100 F
b1100 .#
b1 H
b1 -#
b1101 W
b1101 G"
b1101 (#
b1 S
b1 I"
b1 K"
b1 )#
b1100 T
b1100 H"
b1110 ~
b1110 B"
b1110 d"
b101 s
b101 @"
b101 T"
b101 U"
b101 f"
b110 n
b110 M"
b110 j"
b101 o
b101 N"
b101 i"
b10110 w
b10110 c"
b11001 r
b11001 g"
b1101 t
b1101 A"
b1101 e"
b11 z
b11 3"
b11 b"
b1110000000001000 a
b1110000000001000 y"
b1111 j
b1111 W"
b1110 `
b1110 ]"
b1110 z"
b1111 O
b1111 u"
b1111 3#
b10 +
13
#150000
03
